Suite/Test/Step Name,Browser,Description,Start time,End time,Duration,Status
AccessKitConfigurationPage,Chrome 72.0.3626.96,,2019-02-09 21:22:52,2019-02-09 21:23:39,47.335s,PASSED
,,,,,,
Test Cases/Demo/AccessKitConfigurationPage/SearchListTesting,Chrome 72.0.3626.96,,2019-02-09 21:22:52,2019-02-09 21:23:22,29.450s,PASSED
openBrowser,Chrome 72.0.3626.96,,2019-02-09 21:22:53,2019-02-09 21:22:58,4.767s,PASSED
navigateToUrl,Chrome 72.0.3626.96,,2019-02-09 21:22:58,2019-02-09 21:22:58,0.282s,PASSED
setText,Chrome 72.0.3626.96,,2019-02-09 21:22:58,2019-02-09 21:22:59,0.367s,PASSED
setEncryptedText,Chrome 72.0.3626.96,,2019-02-09 21:22:59,2019-02-09 21:22:59,0.367s,PASSED
click,Chrome 72.0.3626.96,,2019-02-09 21:22:59,2019-02-09 21:23:00,0.758s,PASSED
delay,Chrome 72.0.3626.96,,2019-02-09 21:23:00,2019-02-09 21:23:02,2.040s,PASSED
click,Chrome 72.0.3626.96,,2019-02-09 21:23:02,2019-02-09 21:23:02,0.340s,PASSED
delay,Chrome 72.0.3626.96,,2019-02-09 21:23:02,2019-02-09 21:23:05,3.009s,PASSED
"Statement - inputString = ""113""",Chrome 72.0.3626.96,,2019-02-09 21:23:05,2019-02-09 21:23:05,0.001s,PASSED
setText,Chrome 72.0.3626.96,,2019-02-09 21:23:05,2019-02-09 21:23:05,0.208s,PASSED
delay,Chrome 72.0.3626.96,,2019-02-09 21:23:05,2019-02-09 21:23:07,2.012s,PASSED
Statement - driver = com.kms.katalon.core.webui.driver.DriverFactory.getWebDriver(),Chrome 72.0.3626.96,,2019-02-09 21:23:07,2019-02-09 21:23:07,0.025s,PASSED
"Statement - table = driver.findElement(org.openqa.selenium.By.xpath(""//*[@id=""ResultTable""]/tbody""))",Chrome 72.0.3626.96,,2019-02-09 21:23:07,2019-02-09 21:23:07,0.073s,PASSED
"Statement - rows_table = table.findElements(org.openqa.selenium.By.tagName(""tr""))",Chrome 72.0.3626.96,,2019-02-09 21:23:07,2019-02-09 21:23:08,0.048s,PASSED
"Statement - checkResultTable(rows_table, inputString, false)",Chrome 72.0.3626.96,,2019-02-09 21:23:08,2019-02-09 21:23:08,0.002s,PASSED
Statement - isContain = false,Chrome 72.0.3626.96,,2019-02-09 21:23:08,2019-02-09 21:23:08,0.001s,PASSED
Statement - isNoRecord = false,Chrome 72.0.3626.96,,2019-02-09 21:23:08,2019-02-09 21:23:08,0.002s,PASSED
"Statement - For ([row = 0, row < rows_table.size(), (row++)])",Chrome 72.0.3626.96,,2019-02-09 21:23:08,2019-02-09 21:23:08,0.163s,PASSED
"Statement - inputString = ""測試字串""",Chrome 72.0.3626.96,,2019-02-09 21:23:08,2019-02-09 21:23:08,0.000s,PASSED
setText,Chrome 72.0.3626.96,,2019-02-09 21:23:08,2019-02-09 21:23:08,0.239s,PASSED
delay,Chrome 72.0.3626.96,,2019-02-09 21:23:08,2019-02-09 21:23:10,2.002s,PASSED
"Statement - table = driver.findElement(org.openqa.selenium.By.xpath(""//*[@id=""ResultTable""]/tbody""))",Chrome 72.0.3626.96,,2019-02-09 21:23:10,2019-02-09 21:23:10,0.023s,PASSED
"Statement - rows_table = table.findElements(org.openqa.selenium.By.tagName(""tr""))",Chrome 72.0.3626.96,,2019-02-09 21:23:10,2019-02-09 21:23:10,0.015s,PASSED
"Statement - checkResultTable(rows_table, inputString, false)",Chrome 72.0.3626.96,,2019-02-09 21:23:10,2019-02-09 21:23:10,0.001s,PASSED
Statement - isContain = false,Chrome 72.0.3626.96,,2019-02-09 21:23:10,2019-02-09 21:23:10,0.001s,PASSED
Statement - isNoRecord = false,Chrome 72.0.3626.96,,2019-02-09 21:23:10,2019-02-09 21:23:10,0.000s,PASSED
"Statement - For ([row = 0, row < rows_table.size(), (row++)])",Chrome 72.0.3626.96,,2019-02-09 21:23:10,2019-02-09 21:23:10,0.059s,PASSED
"Statement - inputString = ""Normal""",Chrome 72.0.3626.96,,2019-02-09 21:23:10,2019-02-09 21:23:10,0.001s,PASSED
setText,Chrome 72.0.3626.96,,2019-02-09 21:23:10,2019-02-09 21:23:10,0.215s,PASSED
delay,Chrome 72.0.3626.96,,2019-02-09 21:23:10,2019-02-09 21:23:12,2.002s,PASSED
"Statement - table = driver.findElement(org.openqa.selenium.By.xpath(""//*[@id=""ResultTable""]/tbody""))",Chrome 72.0.3626.96,,2019-02-09 21:23:12,2019-02-09 21:23:12,0.048s,PASSED
"Statement - rows_table = table.findElements(org.openqa.selenium.By.tagName(""tr""))",Chrome 72.0.3626.96,,2019-02-09 21:23:12,2019-02-09 21:23:12,0.059s,PASSED
"Statement - checkResultTable(rows_table, inputString, false)",Chrome 72.0.3626.96,,2019-02-09 21:23:12,2019-02-09 21:23:12,0.001s,PASSED
Statement - isContain = false,Chrome 72.0.3626.96,,2019-02-09 21:23:12,2019-02-09 21:23:12,0.000s,PASSED
Statement - isNoRecord = false,Chrome 72.0.3626.96,,2019-02-09 21:23:12,2019-02-09 21:23:12,0.000s,PASSED
"Statement - For ([row = 0, row < rows_table.size(), (row++)])",Chrome 72.0.3626.96,,2019-02-09 21:23:12,2019-02-09 21:23:13,0.598s,PASSED
"Statement - inputString = ""(""",Chrome 72.0.3626.96,,2019-02-09 21:23:13,2019-02-09 21:23:13,0.000s,PASSED
setText,Chrome 72.0.3626.96,,2019-02-09 21:23:13,2019-02-09 21:23:13,0.128s,PASSED
delay,Chrome 72.0.3626.96,,2019-02-09 21:23:13,2019-02-09 21:23:15,2.003s,PASSED
"Statement - table = driver.findElement(org.openqa.selenium.By.xpath(""//*[@id=""ResultTable""]/tbody""))",Chrome 72.0.3626.96,,2019-02-09 21:23:15,2019-02-09 21:23:15,0.024s,PASSED
"Statement - rows_table = table.findElements(org.openqa.selenium.By.tagName(""tr""))",Chrome 72.0.3626.96,,2019-02-09 21:23:15,2019-02-09 21:23:15,0.023s,PASSED
"Statement - checkResultTable(rows_table, inputString, false)",Chrome 72.0.3626.96,,2019-02-09 21:23:15,2019-02-09 21:23:15,0.001s,PASSED
Statement - isContain = false,Chrome 72.0.3626.96,,2019-02-09 21:23:15,2019-02-09 21:23:15,0.001s,PASSED
Statement - isNoRecord = false,Chrome 72.0.3626.96,,2019-02-09 21:23:15,2019-02-09 21:23:15,0.001s,PASSED
"Statement - For ([row = 0, row < rows_table.size(), (row++)])",Chrome 72.0.3626.96,,2019-02-09 21:23:15,2019-02-09 21:23:18,2.879s,PASSED
"Statement - inputString = ""ICE""",Chrome 72.0.3626.96,,2019-02-09 21:23:18,2019-02-09 21:23:18,0.000s,PASSED
setText,Chrome 72.0.3626.96,,2019-02-09 21:23:18,2019-02-09 21:23:18,0.219s,PASSED
delay,Chrome 72.0.3626.96,,2019-02-09 21:23:18,2019-02-09 21:23:20,2.003s,PASSED
"Statement - table = driver.findElement(org.openqa.selenium.By.xpath(""//*[@id=""ResultTable""]/tbody""))",Chrome 72.0.3626.96,,2019-02-09 21:23:20,2019-02-09 21:23:20,0.031s,PASSED
"Statement - rows_table = table.findElements(org.openqa.selenium.By.tagName(""tr""))",Chrome 72.0.3626.96,,2019-02-09 21:23:20,2019-02-09 21:23:20,0.018s,PASSED
"Statement - checkResultTable(rows_table, inputString, true)",Chrome 72.0.3626.96,,2019-02-09 21:23:20,2019-02-09 21:23:20,0.001s,PASSED
Statement - isContain = false,Chrome 72.0.3626.96,,2019-02-09 21:23:20,2019-02-09 21:23:20,0.000s,PASSED
Statement - isNoRecord = false,Chrome 72.0.3626.96,,2019-02-09 21:23:20,2019-02-09 21:23:20,0.001s,PASSED
"Statement - For ([row = 0, row < rows_table.size(), (row++)])",Chrome 72.0.3626.96,,2019-02-09 21:23:20,2019-02-09 21:23:21,0.446s,PASSED
clickCustom.clickJS.clickUsingJS,Chrome 72.0.3626.96,,2019-02-09 21:23:21,2019-02-09 21:23:21,0.210s,PASSED
closeBrowser,Chrome 72.0.3626.96,,2019-02-09 21:23:21,2019-02-09 21:23:22,0.771s,PASSED
,,,,,,
Test Cases/Demo/AccessKitConfigurationPage/VerifyDefaultSetting/VerifyDefaultSetting,Chrome 72.0.3626.96,,2019-02-09 21:23:22,2019-02-09 21:23:39,17.265s,PASSED
openBrowser,Chrome 72.0.3626.96,,2019-02-09 21:23:22,2019-02-09 21:23:25,2.461s,PASSED
navigateToUrl,Chrome 72.0.3626.96,,2019-02-09 21:23:25,2019-02-09 21:23:25,0.257s,PASSED
setText,Chrome 72.0.3626.96,,2019-02-09 21:23:25,2019-02-09 21:23:25,0.281s,PASSED
setEncryptedText,Chrome 72.0.3626.96,,2019-02-09 21:23:25,2019-02-09 21:23:26,0.258s,PASSED
click,Chrome 72.0.3626.96,,2019-02-09 21:23:26,2019-02-09 21:23:27,0.890s,PASSED
delay,Chrome 72.0.3626.96,,2019-02-09 21:23:27,2019-02-09 21:23:29,2.003s,PASSED
click,Chrome 72.0.3626.96,,2019-02-09 21:23:29,2019-02-09 21:23:29,0.333s,PASSED
delay,Chrome 72.0.3626.96,,2019-02-09 21:23:29,2019-02-09 21:23:32,3.000s,PASSED
checkFocus.checkElementFocus,Chrome 72.0.3626.96,,2019-02-09 21:23:32,2019-02-09 21:23:32,0.045s,PASSED
Statement - driver = com.kms.katalon.core.webui.driver.DriverFactory.getWebDriver(),Chrome 72.0.3626.96,,2019-02-09 21:23:32,2019-02-09 21:23:32,0.000s,PASSED
"Statement - table = driver.findElement(org.openqa.selenium.By.xpath(""//*[@id=""ResultTable""]/tbody""))",Chrome 72.0.3626.96,,2019-02-09 21:23:32,2019-02-09 21:23:32,0.026s,PASSED
"Statement - rows_table = table.findElements(org.openqa.selenium.By.tagName(""tr""))",Chrome 72.0.3626.96,,2019-02-09 21:23:32,2019-02-09 21:23:32,0.024s,PASSED
"Statement - conn = CustomKeywords.dbConnection.DBConnection.ConnectDB(""UMTLHKSQLA"", ""AKMS_AutoTest"", ""1433"")",Chrome 72.0.3626.96,,2019-02-09 21:23:32,2019-02-09 21:23:32,0.335s,PASSED
"Statement - statement = conn.prepareCall(""{Call SelAccessKitConfigurations}"")",Chrome 72.0.3626.96,,2019-02-09 21:23:32,2019-02-09 21:23:32,0.046s,PASSED
Statement - rs = statement.executeQuery(),Chrome 72.0.3626.96,,2019-02-09 21:23:32,2019-02-09 21:23:33,0.089s,PASSED
"Statement - For ([row = 0, row < rows_table.size(), (row++)])",Chrome 72.0.3626.96,,2019-02-09 21:23:33,2019-02-09 21:23:38,5.631s,PASSED
dbConnection.DBConnection.closeDatabaseConnection,Chrome 72.0.3626.96,,2019-02-09 21:23:38,2019-02-09 21:23:38,0.002s,PASSED
clickCustom.clickJS.clickUsingJS,Chrome 72.0.3626.96,,2019-02-09 21:23:38,2019-02-09 21:23:38,0.144s,PASSED
closeBrowser,Chrome 72.0.3626.96,,2019-02-09 21:23:38,2019-02-09 21:23:39,0.707s,PASSED
