Suite/Test/Step Name,Browser,Description,Start time,End time,Duration,Status
DefaultPage,Chrome 71.0.3578.98,,2019-02-04 09:55:31,2019-02-04 10:01:39,6m - 8.271s,FAILED
,,,,,,
Test Cases/Demo/DefualtPage/CheckDisplayName,Chrome 71.0.3578.98,,2019-02-04 09:55:31,2019-02-04 09:55:41,9.523s,PASSED
openBrowser,Chrome 71.0.3578.98,,2019-02-04 09:55:32,2019-02-04 09:55:36,4.431s,PASSED
navigateToUrl,Chrome 71.0.3578.98,,2019-02-04 09:55:36,2019-02-04 09:55:36,0.274s,PASSED
setText,Chrome 71.0.3578.98,,2019-02-04 09:55:36,2019-02-04 09:55:37,0.384s,PASSED
setEncryptedText,Chrome 71.0.3578.98,,2019-02-04 09:55:37,2019-02-04 09:55:37,0.335s,PASSED
click,Chrome 71.0.3578.98,,2019-02-04 09:55:37,2019-02-04 09:55:38,0.800s,PASSED
delay,Chrome 71.0.3578.98,,2019-02-04 09:55:38,2019-02-04 09:55:40,2.033s,PASSED
verifyElementText,Chrome 71.0.3578.98,,2019-02-04 09:55:40,2019-02-04 09:55:40,0.099s,PASSED
closeBrowser,Chrome 71.0.3578.98,,2019-02-04 09:55:40,2019-02-04 09:55:41,0.654s,PASSED
,,,,,,
Test Cases/Demo/DefualtPage/VerifyDefaultSetting/VerifyDefaultSetting_LoanOperator,Chrome 71.0.3578.98,,2019-02-04 09:55:41,2019-02-04 09:55:53,12.010s,PASSED
openBrowser,Chrome 71.0.3578.98,,2019-02-04 09:55:41,2019-02-04 09:55:44,2.262s,PASSED
navigateToUrl,Chrome 71.0.3578.98,,2019-02-04 09:55:44,2019-02-04 09:55:44,0.213s,PASSED
setText,Chrome 71.0.3578.98,,2019-02-04 09:55:44,2019-02-04 09:55:44,0.283s,PASSED
setEncryptedText,Chrome 71.0.3578.98,,2019-02-04 09:55:44,2019-02-04 09:55:44,0.242s,PASSED
click,Chrome 71.0.3578.98,,2019-02-04 09:55:44,2019-02-04 09:55:45,0.658s,PASSED
delay,Chrome 71.0.3578.98,,2019-02-04 09:55:45,2019-02-04 09:55:47,2.003s,PASSED
checkFocus.checkElementFocus,Chrome 71.0.3578.98,,2019-02-04 09:55:47,2019-02-04 09:55:47,0.109s,PASSED
verifyElementAttributeValue,Chrome 71.0.3578.98,,2019-02-04 09:55:47,2019-02-04 09:55:47,0.081s,PASSED
verifyElementAttributeValue,Chrome 71.0.3578.98,,2019-02-04 09:55:47,2019-02-04 09:55:47,0.062s,PASSED
verifyElementChecked,Chrome 71.0.3578.98,,2019-02-04 09:55:47,2019-02-04 09:55:47,0.073s,PASSED
Statement - driver = com.kms.katalon.core.webui.driver.DriverFactory.getWebDriver(),Chrome 71.0.3578.98,,2019-02-04 09:55:47,2019-02-04 09:55:47,0.001s,PASSED
"Statement - table = driver.findElement(org.openqa.selenium.By.xpath(""//*[@id=""ResultTable""]/tbody""))",Chrome 71.0.3578.98,,2019-02-04 09:55:47,2019-02-04 09:55:48,0.033s,PASSED
"Statement - rows_table = table.findElements(org.openqa.selenium.By.tagName(""tr""))",Chrome 71.0.3578.98,,2019-02-04 09:55:48,2019-02-04 09:55:48,0.027s,PASSED
"Statement - conn = CustomKeywords.dbConnection.DBConnection.ConnectDB(""UMTLHKSQLA"", ""AKMS_AutoTest"", ""1433"")",Chrome 71.0.3578.98,,2019-02-04 09:55:48,2019-02-04 09:55:48,0.549s,PASSED
"Statement - statement = conn.prepareCall(""{Call SelAccessKitBorrwoAndReturnsByTypeAndStatus (?,?,?)}"")",Chrome 71.0.3578.98,,2019-02-04 09:55:48,2019-02-04 09:55:48,0.047s,PASSED
"Statement - statement.setString(1, ""All"")",Chrome 71.0.3578.98,,2019-02-04 09:55:48,2019-02-04 09:55:48,0.057s,PASSED
"Statement - statement.setString(2, ""All"")",Chrome 71.0.3578.98,,2019-02-04 09:55:48,2019-02-04 09:55:48,0.001s,PASSED
"Statement - statement.setString(3, ""Normal,Restricted"")",Chrome 71.0.3578.98,,2019-02-04 09:55:48,2019-02-04 09:55:48,0.001s,PASSED
Statement - rs = statement.executeQuery(),Chrome 71.0.3578.98,,2019-02-04 09:55:48,2019-02-04 09:55:49,1.094s,PASSED
"Statement - For ([row = 0, row < rows_table.size(), (row++)])",Chrome 71.0.3578.98,,2019-02-04 09:55:49,2019-02-04 09:55:52,2.689s,PASSED
dbConnection.DBConnection.closeDatabaseConnection,Chrome 71.0.3578.98,,2019-02-04 09:55:52,2019-02-04 09:55:52,0.003s,PASSED
clickCustom.clickJS.clickUsingJS,Chrome 71.0.3578.98,,2019-02-04 09:55:52,2019-02-04 09:55:52,0.183s,PASSED
closeBrowser,Chrome 71.0.3578.98,,2019-02-04 09:55:52,2019-02-04 09:55:53,0.652s,PASSED
,,,,,,
Test Cases/Demo/DefualtPage/VerifyDefaultSetting/VerifyDefaultSetting_OAKAdmin,Chrome 71.0.3578.98,,2019-02-04 09:55:53,2019-02-04 09:56:03,10.194s,PASSED
openBrowser,Chrome 71.0.3578.98,,2019-02-04 09:55:53,2019-02-04 09:55:56,2.158s,PASSED
navigateToUrl,Chrome 71.0.3578.98,,2019-02-04 09:55:56,2019-02-04 09:55:56,0.239s,PASSED
setText,Chrome 71.0.3578.98,,2019-02-04 09:55:56,2019-02-04 09:55:56,0.267s,PASSED
setEncryptedText,Chrome 71.0.3578.98,,2019-02-04 09:55:56,2019-02-04 09:55:56,0.223s,PASSED
click,Chrome 71.0.3578.98,,2019-02-04 09:55:56,2019-02-04 09:55:57,0.712s,PASSED
delay,Chrome 71.0.3578.98,,2019-02-04 09:55:57,2019-02-04 09:55:59,2.003s,PASSED
checkFocus.checkElementFocus,Chrome 71.0.3578.98,,2019-02-04 09:55:59,2019-02-04 09:55:59,0.034s,PASSED
verifyElementAttributeValue,Chrome 71.0.3578.98,,2019-02-04 09:55:59,2019-02-04 09:55:59,0.062s,PASSED
verifyElementAttributeValue,Chrome 71.0.3578.98,,2019-02-04 09:55:59,2019-02-04 09:55:59,0.050s,PASSED
verifyElementChecked,Chrome 71.0.3578.98,,2019-02-04 09:55:59,2019-02-04 09:55:59,0.056s,PASSED
Statement - driver = com.kms.katalon.core.webui.driver.DriverFactory.getWebDriver(),Chrome 71.0.3578.98,,2019-02-04 09:55:59,2019-02-04 09:55:59,0.001s,PASSED
"Statement - table = driver.findElement(org.openqa.selenium.By.xpath(""//*[@id=""ResultTable""]/tbody""))",Chrome 71.0.3578.98,,2019-02-04 09:55:59,2019-02-04 09:55:59,0.026s,PASSED
"Statement - rows_table = table.findElements(org.openqa.selenium.By.tagName(""tr""))",Chrome 71.0.3578.98,,2019-02-04 09:55:59,2019-02-04 09:55:59,0.024s,PASSED
"Statement - conn = CustomKeywords.dbConnection.DBConnection.ConnectDB(""UMTLHKSQLA"", ""AKMS_AutoTest"", ""1433"")",Chrome 71.0.3578.98,,2019-02-04 09:55:59,2019-02-04 09:55:59,0.026s,PASSED
"Statement - statement = conn.prepareCall(""{Call SelAccessKitBorrwoAndReturnsByTypeAndStatus (?,?,?)}"")",Chrome 71.0.3578.98,,2019-02-04 09:55:59,2019-02-04 09:55:59,0.000s,PASSED
"Statement - statement.setString(1, ""All"")",Chrome 71.0.3578.98,,2019-02-04 09:55:59,2019-02-04 09:55:59,0.001s,PASSED
"Statement - statement.setString(2, ""All"")",Chrome 71.0.3578.98,,2019-02-04 09:55:59,2019-02-04 09:55:59,0.000s,PASSED
"Statement - statement.setString(3, ""TSC_Normal,TSC_Restricted"")",Chrome 71.0.3578.98,,2019-02-04 09:55:59,2019-02-04 09:55:59,0.001s,PASSED
Statement - rs = statement.executeQuery(),Chrome 71.0.3578.98,,2019-02-04 09:55:59,2019-02-04 09:56:00,0.631s,PASSED
"Statement - For ([row = 0, row < rows_table.size(), (row++)])",Chrome 71.0.3578.98,,2019-02-04 09:56:00,2019-02-04 09:56:02,2.380s,PASSED
dbConnection.DBConnection.closeDatabaseConnection,Chrome 71.0.3578.98,,2019-02-04 09:56:02,2019-02-04 09:56:02,0.001s,PASSED
clickCustom.clickJS.clickUsingJS,Chrome 71.0.3578.98,,2019-02-04 09:56:02,2019-02-04 09:56:02,0.128s,PASSED
closeBrowser,Chrome 71.0.3578.98,,2019-02-04 09:56:02,2019-02-04 09:56:03,0.657s,PASSED
,,,,,,
Test Cases/Demo/DefualtPage/VerifyDefaultSetting/VerifyDefaultSetting_ReceptionOperator,Chrome 71.0.3578.98,,2019-02-04 09:56:03,2019-02-04 09:56:13,10.293s,PASSED
openBrowser,Chrome 71.0.3578.98,,2019-02-04 09:56:04,2019-02-04 09:56:06,2.324s,PASSED
navigateToUrl,Chrome 71.0.3578.98,,2019-02-04 09:56:06,2019-02-04 09:56:06,0.213s,PASSED
setText,Chrome 71.0.3578.98,,2019-02-04 09:56:06,2019-02-04 09:56:06,0.283s,PASSED
setEncryptedText,Chrome 71.0.3578.98,,2019-02-04 09:56:06,2019-02-04 09:56:07,0.284s,PASSED
click,Chrome 71.0.3578.98,,2019-02-04 09:56:07,2019-02-04 09:56:07,0.745s,PASSED
delay,Chrome 71.0.3578.98,,2019-02-04 09:56:07,2019-02-04 09:56:09,2.001s,PASSED
checkFocus.checkElementFocus,Chrome 71.0.3578.98,,2019-02-04 09:56:09,2019-02-04 09:56:09,0.029s,PASSED
verifyElementAttributeValue,Chrome 71.0.3578.98,,2019-02-04 09:56:09,2019-02-04 09:56:09,0.053s,PASSED
verifyElementAttributeValue,Chrome 71.0.3578.98,,2019-02-04 09:56:09,2019-02-04 09:56:10,0.053s,PASSED
verifyElementChecked,Chrome 71.0.3578.98,,2019-02-04 09:56:10,2019-02-04 09:56:10,0.055s,PASSED
Statement - driver = com.kms.katalon.core.webui.driver.DriverFactory.getWebDriver(),Chrome 71.0.3578.98,,2019-02-04 09:56:10,2019-02-04 09:56:10,0.001s,PASSED
"Statement - table = driver.findElement(org.openqa.selenium.By.xpath(""//*[@id=""ResultTable""]/tbody""))",Chrome 71.0.3578.98,,2019-02-04 09:56:10,2019-02-04 09:56:10,0.026s,PASSED
"Statement - rows_table = table.findElements(org.openqa.selenium.By.tagName(""tr""))",Chrome 71.0.3578.98,,2019-02-04 09:56:10,2019-02-04 09:56:10,0.026s,PASSED
"Statement - conn = CustomKeywords.dbConnection.DBConnection.ConnectDB(""UMTLHKSQLA"", ""AKMS_AutoTest"", ""1433"")",Chrome 71.0.3578.98,,2019-02-04 09:56:10,2019-02-04 09:56:10,0.027s,PASSED
"Statement - statement = conn.prepareCall(""{Call SelAccessKitBorrwoAndReturnsByTypeAndStatus (?,?,?)}"")",Chrome 71.0.3578.98,,2019-02-04 09:56:10,2019-02-04 09:56:10,0.001s,PASSED
"Statement - statement.setString(1, ""All"")",Chrome 71.0.3578.98,,2019-02-04 09:56:10,2019-02-04 09:56:10,0.000s,PASSED
"Statement - statement.setString(2, ""All"")",Chrome 71.0.3578.98,,2019-02-04 09:56:10,2019-02-04 09:56:10,0.000s,PASSED
"Statement - statement.setString(3, ""TSC_Normal,TSC_Restricted"")",Chrome 71.0.3578.98,,2019-02-04 09:56:10,2019-02-04 09:56:10,0.001s,PASSED
Statement - rs = statement.executeQuery(),Chrome 71.0.3578.98,,2019-02-04 09:56:10,2019-02-04 09:56:10,0.573s,PASSED
"Statement - For ([row = 0, row < rows_table.size(), (row++)])",Chrome 71.0.3578.98,,2019-02-04 09:56:10,2019-02-04 09:56:13,2.344s,PASSED
dbConnection.DBConnection.closeDatabaseConnection,Chrome 71.0.3578.98,,2019-02-04 09:56:13,2019-02-04 09:56:13,0.001s,PASSED
clickCustom.clickJS.clickUsingJS,Chrome 71.0.3578.98,,2019-02-04 09:56:13,2019-02-04 09:56:13,0.114s,PASSED
closeBrowser,Chrome 71.0.3578.98,,2019-02-04 09:56:13,2019-02-04 09:56:13,0.637s,PASSED
,,,,,,
Test Cases/Demo/DefualtPage/AccessKitTableSorting_Ascending/AccessKitTableSorting_Ascending_AccessKitName,Chrome 71.0.3578.98,,2019-02-04 09:56:13,2019-02-04 09:56:26,12.852s,FAILED
openBrowser,Chrome 71.0.3578.98,,2019-02-04 09:56:14,2019-02-04 09:56:16,2.239s,PASSED
navigateToUrl,Chrome 71.0.3578.98,,2019-02-04 09:56:16,2019-02-04 09:56:16,0.227s,PASSED
setText,Chrome 71.0.3578.98,,2019-02-04 09:56:16,2019-02-04 09:56:17,0.298s,PASSED
setEncryptedText,Chrome 71.0.3578.98,,2019-02-04 09:56:17,2019-02-04 09:56:17,0.214s,PASSED
click,Chrome 71.0.3578.98,,2019-02-04 09:56:17,2019-02-04 09:56:17,0.707s,PASSED
delay,Chrome 71.0.3578.98,,2019-02-04 09:56:17,2019-02-04 09:56:20,2.002s,PASSED
verifyElementAttributeValue,Chrome 71.0.3578.98,,2019-02-04 09:56:20,2019-02-04 09:56:20,0.056s,PASSED
verifyElementAttributeValue,Chrome 71.0.3578.98,,2019-02-04 09:56:20,2019-02-04 09:56:20,0.065s,PASSED
verifyElementChecked,Chrome 71.0.3578.98,,2019-02-04 09:56:20,2019-02-04 09:56:20,0.055s,PASSED
clickCustom.clickJS.clickUsingJS,Chrome 71.0.3578.98,,2019-02-04 09:56:20,2019-02-04 09:56:20,0.061s,PASSED
delay,Chrome 71.0.3578.98,,2019-02-04 09:56:20,2019-02-04 09:56:25,5.001s,PASSED
Statement - driver = com.kms.katalon.core.webui.driver.DriverFactory.getWebDriver(),Chrome 71.0.3578.98,,2019-02-04 09:56:25,2019-02-04 09:56:25,0.000s,PASSED
"Statement - table = driver.findElement(org.openqa.selenium.By.xpath(""//*[@id=""ResultTable""]/tbody""))",Chrome 71.0.3578.98,,2019-02-04 09:56:25,2019-02-04 09:56:25,0.030s,PASSED
"Statement - rows_table = table.findElements(org.openqa.selenium.By.tagName(""tr""))",Chrome 71.0.3578.98,,2019-02-04 09:56:25,2019-02-04 09:56:25,0.027s,PASSED
Statement - isAscending = true,Chrome 71.0.3578.98,,2019-02-04 09:56:25,2019-02-04 09:56:25,0.001s,PASSED
"Statement - For ([row = 0, row < rows_table.size() - 1, (row++)])",Chrome 71.0.3578.98,,2019-02-04 09:56:25,2019-02-04 09:56:26,1.401s,FAILED
,,,,,,
Test Cases/Demo/DefualtPage/AccessKitTableSorting_Ascending/AccessKitTableSorting_Ascending_AccessKitType,Chrome 71.0.3578.98,,2019-02-04 09:56:26,2019-02-04 09:56:40,14.250s,FAILED
openBrowser,Chrome 71.0.3578.98,,2019-02-04 09:56:27,2019-02-04 09:56:30,2.901s,PASSED
navigateToUrl,Chrome 71.0.3578.98,,2019-02-04 09:56:30,2019-02-04 09:56:30,0.242s,PASSED
setText,Chrome 71.0.3578.98,,2019-02-04 09:56:30,2019-02-04 09:56:30,0.290s,PASSED
setEncryptedText,Chrome 71.0.3578.98,,2019-02-04 09:56:30,2019-02-04 09:56:30,0.220s,PASSED
click,Chrome 71.0.3578.98,,2019-02-04 09:56:30,2019-02-04 09:56:31,0.800s,PASSED
delay,Chrome 71.0.3578.98,,2019-02-04 09:56:31,2019-02-04 09:56:33,2.003s,PASSED
verifyElementAttributeValue,Chrome 71.0.3578.98,,2019-02-04 09:56:33,2019-02-04 09:56:33,0.056s,PASSED
verifyElementAttributeValue,Chrome 71.0.3578.98,,2019-02-04 09:56:33,2019-02-04 09:56:33,0.055s,PASSED
verifyElementChecked,Chrome 71.0.3578.98,,2019-02-04 09:56:33,2019-02-04 09:56:33,0.052s,PASSED
delay,Chrome 71.0.3578.98,,2019-02-04 09:56:33,2019-02-04 09:56:38,5.002s,PASSED
Statement - driver = com.kms.katalon.core.webui.driver.DriverFactory.getWebDriver(),Chrome 71.0.3578.98,,2019-02-04 09:56:38,2019-02-04 09:56:38,0.001s,PASSED
"Statement - table = driver.findElement(org.openqa.selenium.By.xpath(""//*[@id=""ResultTable""]/tbody""))",Chrome 71.0.3578.98,,2019-02-04 09:56:38,2019-02-04 09:56:38,0.031s,PASSED
"Statement - rows_table = table.findElements(org.openqa.selenium.By.tagName(""tr""))",Chrome 71.0.3578.98,,2019-02-04 09:56:38,2019-02-04 09:56:38,0.022s,PASSED
Statement - isAscending = true,Chrome 71.0.3578.98,,2019-02-04 09:56:38,2019-02-04 09:56:38,0.000s,PASSED
"Statement - For ([row = 0, row < rows_table.size() - 1, (row++)])",Chrome 71.0.3578.98,,2019-02-04 09:56:38,2019-02-04 09:56:40,2.002s,FAILED
,,,,,,
Test Cases/Demo/DefualtPage/AccessKitTableSorting_Ascending/AccessKitTableSorting_Ascending_ApplicantName,Chrome 71.0.3578.98,,2019-02-04 09:56:40,2019-02-04 09:56:55,14.858s,PASSED
openBrowser,Chrome 71.0.3578.98,,2019-02-04 09:56:41,2019-02-04 09:56:44,2.965s,PASSED
navigateToUrl,Chrome 71.0.3578.98,,2019-02-04 09:56:44,2019-02-04 09:56:44,0.242s,PASSED
setText,Chrome 71.0.3578.98,,2019-02-04 09:56:44,2019-02-04 09:56:44,0.290s,PASSED
setEncryptedText,Chrome 71.0.3578.98,,2019-02-04 09:56:44,2019-02-04 09:56:45,0.238s,PASSED
click,Chrome 71.0.3578.98,,2019-02-04 09:56:45,2019-02-04 09:56:45,0.727s,PASSED
delay,Chrome 71.0.3578.98,,2019-02-04 09:56:45,2019-02-04 09:56:47,2.001s,PASSED
verifyElementAttributeValue,Chrome 71.0.3578.98,,2019-02-04 09:56:47,2019-02-04 09:56:47,0.067s,PASSED
verifyElementAttributeValue,Chrome 71.0.3578.98,,2019-02-04 09:56:47,2019-02-04 09:56:47,0.067s,PASSED
verifyElementChecked,Chrome 71.0.3578.98,,2019-02-04 09:56:47,2019-02-04 09:56:48,0.075s,PASSED
clickCustom.clickJS.clickUsingJS,Chrome 71.0.3578.98,,2019-02-04 09:56:48,2019-02-04 09:56:48,0.070s,PASSED
delay,Chrome 71.0.3578.98,,2019-02-04 09:56:48,2019-02-04 09:56:53,5.002s,PASSED
Statement - driver = com.kms.katalon.core.webui.driver.DriverFactory.getWebDriver(),Chrome 71.0.3578.98,,2019-02-04 09:56:53,2019-02-04 09:56:53,0.001s,PASSED
"Statement - table = driver.findElement(org.openqa.selenium.By.xpath(""//*[@id=""ResultTable""]/tbody""))",Chrome 71.0.3578.98,,2019-02-04 09:56:53,2019-02-04 09:56:53,0.035s,PASSED
"Statement - rows_table = table.findElements(org.openqa.selenium.By.tagName(""tr""))",Chrome 71.0.3578.98,,2019-02-04 09:56:53,2019-02-04 09:56:53,0.025s,PASSED
Statement - isAscending = true,Chrome 71.0.3578.98,,2019-02-04 09:56:53,2019-02-04 09:56:53,0.000s,PASSED
"Statement - For ([row = 0, row < rows_table.size() - 1, (row++)])",Chrome 71.0.3578.98,,2019-02-04 09:56:53,2019-02-04 09:56:55,1.860s,PASSED
clickCustom.clickJS.clickUsingJS,Chrome 71.0.3578.98,,2019-02-04 09:56:55,2019-02-04 09:56:55,0.109s,PASSED
closeBrowser,Chrome 71.0.3578.98,,2019-02-04 09:56:55,2019-02-04 09:56:55,0.655s,PASSED
,,,,,,
Test Cases/Demo/DefualtPage/AccessKitTableSorting_Descending/AccessKitTableSorting_Descending_AccessKitName,Chrome 71.0.3578.98,,2019-02-04 09:56:55,2019-02-04 09:57:07,11.805s,FAILED
openBrowser,Chrome 71.0.3578.98,,2019-02-04 09:56:56,2019-02-04 09:56:58,2.297s,PASSED
navigateToUrl,Chrome 71.0.3578.98,,2019-02-04 09:56:58,2019-02-04 09:56:58,0.257s,PASSED
setText,Chrome 71.0.3578.98,,2019-02-04 09:56:58,2019-02-04 09:56:59,0.278s,PASSED
setEncryptedText,Chrome 71.0.3578.98,,2019-02-04 09:56:59,2019-02-04 09:56:59,0.214s,PASSED
click,Chrome 71.0.3578.98,,2019-02-04 09:56:59,2019-02-04 09:57:00,0.744s,PASSED
delay,Chrome 71.0.3578.98,,2019-02-04 09:57:00,2019-02-04 09:57:02,2.001s,PASSED
verifyElementAttributeValue,Chrome 71.0.3578.98,,2019-02-04 09:57:02,2019-02-04 09:57:02,0.056s,PASSED
verifyElementAttributeValue,Chrome 71.0.3578.98,,2019-02-04 09:57:02,2019-02-04 09:57:02,0.051s,PASSED
verifyElementChecked,Chrome 71.0.3578.98,,2019-02-04 09:57:02,2019-02-04 09:57:02,0.053s,PASSED
clickCustom.clickJS.clickUsingJS,Chrome 71.0.3578.98,,2019-02-04 09:57:02,2019-02-04 09:57:02,0.054s,PASSED
clickCustom.clickJS.clickUsingJS,Chrome 71.0.3578.98,,2019-02-04 09:57:02,2019-02-04 09:57:02,0.036s,PASSED
delay,Chrome 71.0.3578.98,,2019-02-04 09:57:02,2019-02-04 09:57:07,5.001s,PASSED
Statement - driver = com.kms.katalon.core.webui.driver.DriverFactory.getWebDriver(),Chrome 71.0.3578.98,,2019-02-04 09:57:07,2019-02-04 09:57:07,0.000s,PASSED
"Statement - table = driver.findElement(org.openqa.selenium.By.xpath(""//*[@id=""ResultTable""]/tbody""))",Chrome 71.0.3578.98,,2019-02-04 09:57:07,2019-02-04 09:57:07,0.031s,PASSED
"Statement - rows_table = table.findElements(org.openqa.selenium.By.tagName(""tr""))",Chrome 71.0.3578.98,,2019-02-04 09:57:07,2019-02-04 09:57:07,0.025s,PASSED
Statement - isAscending = true,Chrome 71.0.3578.98,,2019-02-04 09:57:07,2019-02-04 09:57:07,0.001s,PASSED
"Statement - For ([row = 0, row < rows_table.size() - 1, (row++)])",Chrome 71.0.3578.98,,2019-02-04 09:57:07,2019-02-04 09:57:07,0.239s,FAILED
,,,,,,
Test Cases/Demo/DefualtPage/AccessKitTableSorting_Descending/AccessKitTableSorting_Descending_AccessKitType,Chrome 71.0.3578.98,,2019-02-04 09:57:07,2019-02-04 09:57:20,12.710s,FAILED
openBrowser,Chrome 71.0.3578.98,,2019-02-04 09:57:08,2019-02-04 09:57:11,2.902s,PASSED
navigateToUrl,Chrome 71.0.3578.98,,2019-02-04 09:57:11,2019-02-04 09:57:11,0.216s,PASSED
setText,Chrome 71.0.3578.98,,2019-02-04 09:57:11,2019-02-04 09:57:11,0.270s,PASSED
setEncryptedText,Chrome 71.0.3578.98,,2019-02-04 09:57:11,2019-02-04 09:57:11,0.236s,PASSED
click,Chrome 71.0.3578.98,,2019-02-04 09:57:11,2019-02-04 09:57:12,0.687s,PASSED
delay,Chrome 71.0.3578.98,,2019-02-04 09:57:12,2019-02-04 09:57:14,2.003s,PASSED
verifyElementAttributeValue,Chrome 71.0.3578.98,,2019-02-04 09:57:14,2019-02-04 09:57:14,0.062s,PASSED
verifyElementAttributeValue,Chrome 71.0.3578.98,,2019-02-04 09:57:14,2019-02-04 09:57:14,0.058s,PASSED
verifyElementChecked,Chrome 71.0.3578.98,,2019-02-04 09:57:14,2019-02-04 09:57:14,0.057s,PASSED
clickCustom.clickJS.clickUsingJS,Chrome 71.0.3578.98,,2019-02-04 09:57:14,2019-02-04 09:57:14,0.064s,PASSED
delay,Chrome 71.0.3578.98,,2019-02-04 09:57:14,2019-02-04 09:57:19,5.003s,PASSED
Statement - driver = com.kms.katalon.core.webui.driver.DriverFactory.getWebDriver(),Chrome 71.0.3578.98,,2019-02-04 09:57:19,2019-02-04 09:57:19,0.000s,PASSED
"Statement - table = driver.findElement(org.openqa.selenium.By.xpath(""//*[@id=""ResultTable""]/tbody""))",Chrome 71.0.3578.98,,2019-02-04 09:57:19,2019-02-04 09:57:19,0.026s,PASSED
"Statement - rows_table = table.findElements(org.openqa.selenium.By.tagName(""tr""))",Chrome 71.0.3578.98,,2019-02-04 09:57:19,2019-02-04 09:57:19,0.026s,PASSED
Statement - isAscending = true,Chrome 71.0.3578.98,,2019-02-04 09:57:19,2019-02-04 09:57:19,0.000s,PASSED
"Statement - For ([row = 0, row < rows_table.size() - 1, (row++)])",Chrome 71.0.3578.98,,2019-02-04 09:57:19,2019-02-04 09:57:20,0.622s,FAILED
,,,,,,
Test Cases/Demo/DefualtPage/AccessKitTableSorting_Descending/AccessKitTableSorting_Descending_ApplicantName,Chrome 71.0.3578.98,,2019-02-04 09:57:20,2019-02-04 09:57:35,14.810s,PASSED
openBrowser,Chrome 71.0.3578.98,,2019-02-04 09:57:20,2019-02-04 09:57:23,2.961s,PASSED
navigateToUrl,Chrome 71.0.3578.98,,2019-02-04 09:57:23,2019-02-04 09:57:24,0.234s,PASSED
setText,Chrome 71.0.3578.98,,2019-02-04 09:57:24,2019-02-04 09:57:24,0.283s,PASSED
setEncryptedText,Chrome 71.0.3578.98,,2019-02-04 09:57:24,2019-02-04 09:57:24,0.204s,PASSED
click,Chrome 71.0.3578.98,,2019-02-04 09:57:24,2019-02-04 09:57:25,0.703s,PASSED
delay,Chrome 71.0.3578.98,,2019-02-04 09:57:25,2019-02-04 09:57:27,2.002s,PASSED
verifyElementAttributeValue,Chrome 71.0.3578.98,,2019-02-04 09:57:27,2019-02-04 09:57:27,0.055s,PASSED
verifyElementAttributeValue,Chrome 71.0.3578.98,,2019-02-04 09:57:27,2019-02-04 09:57:27,0.048s,PASSED
verifyElementChecked,Chrome 71.0.3578.98,,2019-02-04 09:57:27,2019-02-04 09:57:27,0.058s,PASSED
clickCustom.clickJS.clickUsingJS,Chrome 71.0.3578.98,,2019-02-04 09:57:27,2019-02-04 09:57:27,0.057s,PASSED
clickCustom.clickJS.clickUsingJS,Chrome 71.0.3578.98,,2019-02-04 09:57:27,2019-02-04 09:57:27,0.038s,PASSED
delay,Chrome 71.0.3578.98,,2019-02-04 09:57:27,2019-02-04 09:57:32,5.002s,PASSED
Statement - driver = com.kms.katalon.core.webui.driver.DriverFactory.getWebDriver(),Chrome 71.0.3578.98,,2019-02-04 09:57:32,2019-02-04 09:57:32,0.001s,PASSED
"Statement - table = driver.findElement(org.openqa.selenium.By.xpath(""//*[@id=""ResultTable""]/tbody""))",Chrome 71.0.3578.98,,2019-02-04 09:57:32,2019-02-04 09:57:32,0.028s,PASSED
"Statement - rows_table = table.findElements(org.openqa.selenium.By.tagName(""tr""))",Chrome 71.0.3578.98,,2019-02-04 09:57:32,2019-02-04 09:57:32,0.025s,PASSED
Statement - isAscending = true,Chrome 71.0.3578.98,,2019-02-04 09:57:32,2019-02-04 09:57:32,0.000s,PASSED
"Statement - For ([row = 0, row < rows_table.size() - 1, (row++)])",Chrome 71.0.3578.98,,2019-02-04 09:57:32,2019-02-04 09:57:34,1.858s,PASSED
clickCustom.clickJS.clickUsingJS,Chrome 71.0.3578.98,,2019-02-04 09:57:34,2019-02-04 09:57:34,0.114s,PASSED
closeBrowser,Chrome 71.0.3578.98,,2019-02-04 09:57:34,2019-02-04 09:57:35,0.687s,PASSED
,,,,,,
Test Cases/Demo/DefualtPage/SearchBy DisplayTempStaffCardOnlyOnly/SearchBy DisplayTempStaffCardOnlyOnly_LoanOperator_Yes,Chrome 71.0.3578.98,"Prerequisite
Access Kit Status : Yes",2019-02-04 09:57:35,2019-02-04 09:57:51,15.963s,PASSED
openBrowser,Chrome 71.0.3578.98,,2019-02-04 09:57:35,2019-02-04 09:57:37,2.311s,PASSED
navigateToUrl,Chrome 71.0.3578.98,,2019-02-04 09:57:37,2019-02-04 09:57:38,0.235s,PASSED
setText,Chrome 71.0.3578.98,,2019-02-04 09:57:38,2019-02-04 09:57:38,0.282s,PASSED
setEncryptedText,Chrome 71.0.3578.98,,2019-02-04 09:57:38,2019-02-04 09:57:38,0.207s,PASSED
click,Chrome 71.0.3578.98,,2019-02-04 09:57:38,2019-02-04 09:57:39,0.719s,PASSED
delay,Chrome 71.0.3578.98,,2019-02-04 09:57:39,2019-02-04 09:57:41,2.002s,PASSED
checkFocus.checkElementFocus,Chrome 71.0.3578.98,,2019-02-04 09:57:41,2019-02-04 09:57:41,0.035s,PASSED
verifyElementAttributeValue,Chrome 71.0.3578.98,,2019-02-04 09:57:41,2019-02-04 09:57:41,0.056s,PASSED
verifyElementAttributeValue,Chrome 71.0.3578.98,,2019-02-04 09:57:41,2019-02-04 09:57:41,0.059s,PASSED
clickCustom.clickJS.clickUsingJS,Chrome 71.0.3578.98,,2019-02-04 09:57:41,2019-02-04 09:57:41,0.057s,PASSED
delay,Chrome 71.0.3578.98,,2019-02-04 09:57:41,2019-02-04 09:57:46,5.002s,PASSED
Statement - driver = com.kms.katalon.core.webui.driver.DriverFactory.getWebDriver(),Chrome 71.0.3578.98,,2019-02-04 09:57:46,2019-02-04 09:57:46,0.001s,PASSED
"Statement - table = driver.findElement(org.openqa.selenium.By.xpath(""//*[@id=""ResultTable""]/tbody""))",Chrome 71.0.3578.98,,2019-02-04 09:57:46,2019-02-04 09:57:46,0.047s,PASSED
"Statement - rows_table = table.findElements(org.openqa.selenium.By.tagName(""tr""))",Chrome 71.0.3578.98,,2019-02-04 09:57:46,2019-02-04 09:57:46,0.038s,PASSED
"Statement - conn = CustomKeywords.dbConnection.DBConnection.ConnectDB(""UMTLHKSQLA"", ""AKMS_AutoTest"", ""1433"")",Chrome 71.0.3578.98,,2019-02-04 09:57:46,2019-02-04 09:57:46,0.038s,PASSED
"Statement - statement = conn.prepareCall(""{Call SelAccessKitBorrwoAndReturnsByTypeAndStatus (?,?,?)}"")",Chrome 71.0.3578.98,,2019-02-04 09:57:46,2019-02-04 09:57:46,0.000s,PASSED
"Statement - statement.setString(1, ""All"")",Chrome 71.0.3578.98,,2019-02-04 09:57:46,2019-02-04 09:57:46,0.001s,PASSED
"Statement - statement.setString(2, ""All"")",Chrome 71.0.3578.98,,2019-02-04 09:57:46,2019-02-04 09:57:46,0.000s,PASSED
"Statement - statement.setString(3, ""Normal,Restricted"")",Chrome 71.0.3578.98,,2019-02-04 09:57:46,2019-02-04 09:57:46,0.001s,PASSED
Statement - rs = statement.executeQuery(),Chrome 71.0.3578.98,,2019-02-04 09:57:46,2019-02-04 09:57:47,1.130s,PASSED
"Statement - For ([row = 0, row < rows_table.size(), (row++)])",Chrome 71.0.3578.98,,2019-02-04 09:57:47,2019-02-04 09:57:50,2.517s,PASSED
dbConnection.DBConnection.closeDatabaseConnection,Chrome 71.0.3578.98,,2019-02-04 09:57:50,2019-02-04 09:57:50,0.000s,PASSED
clickCustom.clickJS.clickUsingJS,Chrome 71.0.3578.98,,2019-02-04 09:57:50,2019-02-04 09:57:50,0.120s,PASSED
closeBrowser,Chrome 71.0.3578.98,,2019-02-04 09:57:50,2019-02-04 09:57:51,0.657s,PASSED
,,,,,,
Test Cases/Demo/DefualtPage/SearchBy DisplayTempStaffCardOnlyOnly/SearchBy DisplayTempStaffCardOnlyOnly_ReceptionOperator_No,Chrome 71.0.3578.98,,2019-02-04 09:57:51,2019-02-04 09:58:10,18.901s,PASSED
openBrowser,Chrome 71.0.3578.98,,2019-02-04 09:57:51,2019-02-04 09:57:53,2.260s,PASSED
navigateToUrl,Chrome 71.0.3578.98,,2019-02-04 09:57:53,2019-02-04 09:57:54,0.224s,PASSED
setText,Chrome 71.0.3578.98,,2019-02-04 09:57:54,2019-02-04 09:57:54,0.277s,PASSED
setEncryptedText,Chrome 71.0.3578.98,,2019-02-04 09:57:54,2019-02-04 09:57:54,0.223s,PASSED
click,Chrome 71.0.3578.98,,2019-02-04 09:57:54,2019-02-04 09:57:55,0.685s,PASSED
delay,Chrome 71.0.3578.98,,2019-02-04 09:57:55,2019-02-04 09:57:57,2.002s,PASSED
checkFocus.checkElementFocus,Chrome 71.0.3578.98,,2019-02-04 09:57:57,2019-02-04 09:57:57,0.036s,PASSED
verifyElementAttributeValue,Chrome 71.0.3578.98,,2019-02-04 09:57:57,2019-02-04 09:57:57,0.061s,PASSED
verifyElementAttributeValue,Chrome 71.0.3578.98,,2019-02-04 09:57:57,2019-02-04 09:57:57,0.055s,PASSED
clickCustom.clickJS.clickUsingJS,Chrome 71.0.3578.98,,2019-02-04 09:57:57,2019-02-04 09:57:57,0.054s,PASSED
delay,Chrome 71.0.3578.98,,2019-02-04 09:57:57,2019-02-04 09:58:02,5.002s,PASSED
Statement - driver = com.kms.katalon.core.webui.driver.DriverFactory.getWebDriver(),Chrome 71.0.3578.98,,2019-02-04 09:58:02,2019-02-04 09:58:02,0.000s,PASSED
"Statement - table = driver.findElement(org.openqa.selenium.By.xpath(""//*[@id=""ResultTable""]/tbody""))",Chrome 71.0.3578.98,,2019-02-04 09:58:02,2019-02-04 09:58:02,0.032s,PASSED
"Statement - rows_table = table.findElements(org.openqa.selenium.By.tagName(""tr""))",Chrome 71.0.3578.98,,2019-02-04 09:58:02,2019-02-04 09:58:02,0.033s,PASSED
"Statement - conn = CustomKeywords.dbConnection.DBConnection.ConnectDB(""UMTLHKSQLA"", ""AKMS_AutoTest"", ""1433"")",Chrome 71.0.3578.98,,2019-02-04 09:58:02,2019-02-04 09:58:02,0.034s,PASSED
"Statement - statement = conn.prepareCall(""{Call SelAccessKitBorrwoAndReturnsByTypeAndStatus (?,?,?)}"")",Chrome 71.0.3578.98,,2019-02-04 09:58:02,2019-02-04 09:58:02,0.001s,PASSED
"Statement - statement.setString(1, ""All"")",Chrome 71.0.3578.98,,2019-02-04 09:58:02,2019-02-04 09:58:02,0.000s,PASSED
"Statement - statement.setString(2, ""All"")",Chrome 71.0.3578.98,,2019-02-04 09:58:02,2019-02-04 09:58:02,0.001s,PASSED
"Statement - statement.setString(3, ""Normal,Restricted,TSC_Normal,TSC_Restricted"")",Chrome 71.0.3578.98,,2019-02-04 09:58:02,2019-02-04 09:58:02,0.000s,PASSED
Statement - rs = statement.executeQuery(),Chrome 71.0.3578.98,,2019-02-04 09:58:02,2019-02-04 09:58:04,1.694s,PASSED
"Statement - For ([row = 0, row < rows_table.size(), (row++)])",Chrome 71.0.3578.98,,2019-02-04 09:58:04,2019-02-04 09:58:09,4.962s,PASSED
dbConnection.DBConnection.closeDatabaseConnection,Chrome 71.0.3578.98,,2019-02-04 09:58:09,2019-02-04 09:58:09,0.001s,PASSED
clickCustom.clickJS.clickUsingJS,Chrome 71.0.3578.98,,2019-02-04 09:58:09,2019-02-04 09:58:09,0.130s,PASSED
closeBrowser,Chrome 71.0.3578.98,,2019-02-04 09:58:09,2019-02-04 09:58:10,0.665s,PASSED
,,,,,,
Test Cases/Demo/DefualtPage/SearchByAccessKitStatusOnly/SearchByAccessKitStatusOnly_Aailable_LoanOperator,Chrome 71.0.3578.98,,2019-02-04 09:58:10,2019-02-04 09:58:20,10.458s,PASSED
openBrowser,Chrome 71.0.3578.98,,2019-02-04 09:58:10,2019-02-04 09:58:12,2.227s,PASSED
navigateToUrl,Chrome 71.0.3578.98,,2019-02-04 09:58:12,2019-02-04 09:58:12,0.224s,PASSED
setText,Chrome 71.0.3578.98,,2019-02-04 09:58:12,2019-02-04 09:58:13,0.293s,PASSED
setEncryptedText,Chrome 71.0.3578.98,,2019-02-04 09:58:13,2019-02-04 09:58:13,0.232s,PASSED
click,Chrome 71.0.3578.98,,2019-02-04 09:58:13,2019-02-04 09:58:14,0.685s,PASSED
delay,Chrome 71.0.3578.98,,2019-02-04 09:58:14,2019-02-04 09:58:16,2.002s,PASSED
checkFocus.checkElementFocus,Chrome 71.0.3578.98,,2019-02-04 09:58:16,2019-02-04 09:58:16,0.035s,PASSED
verifyElementAttributeValue,Chrome 71.0.3578.98,,2019-02-04 09:58:16,2019-02-04 09:58:16,0.056s,PASSED
selectOptionByValue,Chrome 71.0.3578.98,,2019-02-04 09:58:16,2019-02-04 09:58:16,0.221s,PASSED
delay,Chrome 71.0.3578.98,,2019-02-04 09:58:16,2019-02-04 09:58:18,2.002s,PASSED
verifyElementChecked,Chrome 71.0.3578.98,,2019-02-04 09:58:18,2019-02-04 09:58:18,0.053s,PASSED
Statement - driver = com.kms.katalon.core.webui.driver.DriverFactory.getWebDriver(),Chrome 71.0.3578.98,,2019-02-04 09:58:18,2019-02-04 09:58:18,0.001s,PASSED
"Statement - table = driver.findElement(org.openqa.selenium.By.xpath(""//*[@id=""ResultTable""]/tbody""))",Chrome 71.0.3578.98,,2019-02-04 09:58:18,2019-02-04 09:58:18,0.023s,PASSED
"Statement - rows_table = table.findElements(org.openqa.selenium.By.tagName(""tr""))",Chrome 71.0.3578.98,,2019-02-04 09:58:18,2019-02-04 09:58:18,0.023s,PASSED
"Statement - conn = CustomKeywords.dbConnection.DBConnection.ConnectDB(""UMTLHKSQLA"", ""AKMS_AutoTest"", ""1433"")",Chrome 71.0.3578.98,,2019-02-04 09:58:18,2019-02-04 09:58:18,0.022s,PASSED
"Statement - statement = conn.prepareCall(""{Call SelAccessKitBorrwoAndReturnsByTypeAndStatus (?,?,?)}"")",Chrome 71.0.3578.98,,2019-02-04 09:58:18,2019-02-04 09:58:18,0.001s,PASSED
"Statement - statement.setString(1, ""All"")",Chrome 71.0.3578.98,,2019-02-04 09:58:18,2019-02-04 09:58:18,0.001s,PASSED
"Statement - statement.setString(2, ""Available"")",Chrome 71.0.3578.98,,2019-02-04 09:58:18,2019-02-04 09:58:18,0.000s,PASSED
"Statement - statement.setString(3, ""Normal,Restricted"")",Chrome 71.0.3578.98,,2019-02-04 09:58:18,2019-02-04 09:58:18,0.000s,PASSED
Statement - rs = statement.executeQuery(),Chrome 71.0.3578.98,,2019-02-04 09:58:18,2019-02-04 09:58:18,0.137s,PASSED
"Statement - For ([row = 0, row < rows_table.size(), (row++)])",Chrome 71.0.3578.98,,2019-02-04 09:58:18,2019-02-04 09:58:19,0.985s,PASSED
dbConnection.DBConnection.closeDatabaseConnection,Chrome 71.0.3578.98,,2019-02-04 09:58:19,2019-02-04 09:58:19,0.001s,PASSED
clickCustom.clickJS.clickUsingJS,Chrome 71.0.3578.98,,2019-02-04 09:58:19,2019-02-04 09:58:19,0.143s,PASSED
closeBrowser,Chrome 71.0.3578.98,,2019-02-04 09:58:19,2019-02-04 09:58:20,0.656s,PASSED
,,,,,,
Test Cases/Demo/DefualtPage/SearchByAccessKitStatusOnly/SearchByAccessKitStatusOnly_Aailable_ReceptionOperator,Chrome 71.0.3578.98,,2019-02-04 09:58:20,2019-02-04 09:58:35,14.836s,PASSED
openBrowser,Chrome 71.0.3578.98,,2019-02-04 09:58:21,2019-02-04 09:58:23,2.276s,PASSED
navigateToUrl,Chrome 71.0.3578.98,,2019-02-04 09:58:23,2019-02-04 09:58:23,0.261s,PASSED
setText,Chrome 71.0.3578.98,,2019-02-04 09:58:23,2019-02-04 09:58:23,0.332s,PASSED
setEncryptedText,Chrome 71.0.3578.98,,2019-02-04 09:58:23,2019-02-04 09:58:24,0.291s,PASSED
click,Chrome 71.0.3578.98,,2019-02-04 09:58:24,2019-02-04 09:58:25,0.889s,PASSED
delay,Chrome 71.0.3578.98,,2019-02-04 09:58:25,2019-02-04 09:58:27,2.003s,PASSED
checkFocus.checkElementFocus,Chrome 71.0.3578.98,,2019-02-04 09:58:27,2019-02-04 09:58:27,0.035s,PASSED
verifyElementAttributeValue,Chrome 71.0.3578.98,,2019-02-04 09:58:27,2019-02-04 09:58:27,0.078s,PASSED
selectOptionByValue,Chrome 71.0.3578.98,,2019-02-04 09:58:27,2019-02-04 09:58:27,0.223s,PASSED
delay,Chrome 71.0.3578.98,,2019-02-04 09:58:27,2019-02-04 09:58:32,5.002s,PASSED
verifyElementChecked,Chrome 71.0.3578.98,,2019-02-04 09:58:32,2019-02-04 09:58:32,0.055s,PASSED
Statement - driver = com.kms.katalon.core.webui.driver.DriverFactory.getWebDriver(),Chrome 71.0.3578.98,,2019-02-04 09:58:32,2019-02-04 09:58:32,0.001s,PASSED
"Statement - table = driver.findElement(org.openqa.selenium.By.xpath(""//*[@id=""ResultTable""]/tbody""))",Chrome 71.0.3578.98,,2019-02-04 09:58:32,2019-02-04 09:58:32,0.026s,PASSED
"Statement - rows_table = table.findElements(org.openqa.selenium.By.tagName(""tr""))",Chrome 71.0.3578.98,,2019-02-04 09:58:32,2019-02-04 09:58:32,0.028s,PASSED
"Statement - conn = CustomKeywords.dbConnection.DBConnection.ConnectDB(""UMTLHKSQLA"", ""AKMS_AutoTest"", ""1433"")",Chrome 71.0.3578.98,,2019-02-04 09:58:32,2019-02-04 09:58:32,0.027s,PASSED
"Statement - statement = conn.prepareCall(""{Call SelAccessKitBorrwoAndReturnsByTypeAndStatus (?,?,?)}"")",Chrome 71.0.3578.98,,2019-02-04 09:58:32,2019-02-04 09:58:32,0.000s,PASSED
"Statement - statement.setString(1, ""All"")",Chrome 71.0.3578.98,,2019-02-04 09:58:32,2019-02-04 09:58:32,0.000s,PASSED
"Statement - statement.setString(2, ""Available"")",Chrome 71.0.3578.98,,2019-02-04 09:58:32,2019-02-04 09:58:32,0.000s,PASSED
"Statement - statement.setString(3, ""TSC_Normal,TSC_Restricted"")",Chrome 71.0.3578.98,,2019-02-04 09:58:32,2019-02-04 09:58:32,0.000s,PASSED
Statement - rs = statement.executeQuery(),Chrome 71.0.3578.98,,2019-02-04 09:58:32,2019-02-04 09:58:32,0.166s,PASSED
"Statement - For ([row = 0, row < rows_table.size(), (row++)])",Chrome 71.0.3578.98,,2019-02-04 09:58:32,2019-02-04 09:58:34,1.859s,PASSED
dbConnection.DBConnection.closeDatabaseConnection,Chrome 71.0.3578.98,,2019-02-04 09:58:34,2019-02-04 09:58:34,0.001s,PASSED
clickCustom.clickJS.clickUsingJS,Chrome 71.0.3578.98,,2019-02-04 09:58:34,2019-02-04 09:58:34,0.135s,PASSED
closeBrowser,Chrome 71.0.3578.98,,2019-02-04 09:58:34,2019-02-04 09:58:35,0.656s,PASSED
,,,,,,
Test Cases/Demo/DefualtPage/SearchByAccessKitStatusOnly/SearchByAccessKitStatusOnly_OnLoan_LoanOperator,Chrome 71.0.3578.98,,2019-02-04 09:58:35,2019-02-04 09:58:50,15.062s,PASSED
openBrowser,Chrome 71.0.3578.98,,2019-02-04 09:58:35,2019-02-04 09:58:38,2.271s,PASSED
navigateToUrl,Chrome 71.0.3578.98,,2019-02-04 09:58:38,2019-02-04 09:58:38,0.229s,PASSED
setText,Chrome 71.0.3578.98,,2019-02-04 09:58:38,2019-02-04 09:58:38,0.284s,PASSED
setEncryptedText,Chrome 71.0.3578.98,,2019-02-04 09:58:38,2019-02-04 09:58:38,0.246s,PASSED
click,Chrome 71.0.3578.98,,2019-02-04 09:58:38,2019-02-04 09:58:39,0.959s,PASSED
delay,Chrome 71.0.3578.98,,2019-02-04 09:58:39,2019-02-04 09:58:41,2.002s,PASSED
checkFocus.checkElementFocus,Chrome 71.0.3578.98,,2019-02-04 09:58:41,2019-02-04 09:58:42,0.041s,PASSED
verifyElementAttributeValue,Chrome 71.0.3578.98,,2019-02-04 09:58:42,2019-02-04 09:58:42,0.071s,PASSED
selectOptionByValue,Chrome 71.0.3578.98,,2019-02-04 09:58:42,2019-02-04 09:58:42,0.200s,PASSED
verifyElementChecked,Chrome 71.0.3578.98,,2019-02-04 09:58:42,2019-02-04 09:58:42,0.074s,PASSED
delay,Chrome 71.0.3578.98,,2019-02-04 09:58:42,2019-02-04 09:58:47,5.001s,PASSED
Statement - driver = com.kms.katalon.core.webui.driver.DriverFactory.getWebDriver(),Chrome 71.0.3578.98,,2019-02-04 09:58:47,2019-02-04 09:58:47,0.001s,PASSED
"Statement - table = driver.findElement(org.openqa.selenium.By.xpath(""//*[@id=""ResultTable""]/tbody""))",Chrome 71.0.3578.98,,2019-02-04 09:58:47,2019-02-04 09:58:47,0.031s,PASSED
"Statement - rows_table = table.findElements(org.openqa.selenium.By.tagName(""tr""))",Chrome 71.0.3578.98,,2019-02-04 09:58:47,2019-02-04 09:58:47,0.026s,PASSED
"Statement - conn = CustomKeywords.dbConnection.DBConnection.ConnectDB(""UMTLHKSQLA"", ""AKMS_AutoTest"", ""1433"")",Chrome 71.0.3578.98,,2019-02-04 09:58:47,2019-02-04 09:58:47,0.031s,PASSED
"Statement - statement = conn.prepareCall(""{Call SelAccessKitBorrwoAndReturnsByTypeAndStatus (?,?,?)}"")",Chrome 71.0.3578.98,,2019-02-04 09:58:47,2019-02-04 09:58:47,0.001s,PASSED
"Statement - statement.setString(1, ""All"")",Chrome 71.0.3578.98,,2019-02-04 09:58:47,2019-02-04 09:58:47,0.000s,PASSED
"Statement - statement.setString(2, ""OnLoan"")",Chrome 71.0.3578.98,,2019-02-04 09:58:47,2019-02-04 09:58:47,0.000s,PASSED
"Statement - statement.setString(3, ""Normal,Restricted"")",Chrome 71.0.3578.98,,2019-02-04 09:58:47,2019-02-04 09:58:47,0.001s,PASSED
Statement - rs = statement.executeQuery(),Chrome 71.0.3578.98,,2019-02-04 09:58:47,2019-02-04 09:58:48,0.914s,PASSED
"Statement - For ([row = 0, row < rows_table.size(), (row++)])",Chrome 71.0.3578.98,,2019-02-04 09:58:48,2019-02-04 09:58:49,1.368s,PASSED
dbConnection.DBConnection.closeDatabaseConnection,Chrome 71.0.3578.98,,2019-02-04 09:58:49,2019-02-04 09:58:49,0.001s,PASSED
clickCustom.clickJS.clickUsingJS,Chrome 71.0.3578.98,,2019-02-04 09:58:49,2019-02-04 09:58:49,0.120s,PASSED
closeBrowser,Chrome 71.0.3578.98,,2019-02-04 09:58:49,2019-02-04 09:58:50,0.635s,PASSED
,,,,,,
Test Cases/Demo/DefualtPage/SearchByAccessKitStatusOnly/SearchByAccessKitStatusOnly_OnLoan_ReceptionOperator,Chrome 71.0.3578.98,,2019-02-04 09:58:50,2019-02-04 09:59:03,13.446s,PASSED
openBrowser,Chrome 71.0.3578.98,,2019-02-04 09:58:50,2019-02-04 09:58:53,2.269s,PASSED
navigateToUrl,Chrome 71.0.3578.98,,2019-02-04 09:58:53,2019-02-04 09:58:53,0.217s,PASSED
setText,Chrome 71.0.3578.98,,2019-02-04 09:58:53,2019-02-04 09:58:53,0.276s,PASSED
setEncryptedText,Chrome 71.0.3578.98,,2019-02-04 09:58:53,2019-02-04 09:58:53,0.204s,PASSED
click,Chrome 71.0.3578.98,,2019-02-04 09:58:53,2019-02-04 09:58:54,0.723s,PASSED
delay,Chrome 71.0.3578.98,,2019-02-04 09:58:54,2019-02-04 09:58:56,2.002s,PASSED
checkFocus.checkElementFocus,Chrome 71.0.3578.98,,2019-02-04 09:58:56,2019-02-04 09:58:56,0.028s,PASSED
verifyElementAttributeValue,Chrome 71.0.3578.98,,2019-02-04 09:58:56,2019-02-04 09:58:56,0.050s,PASSED
selectOptionByValue,Chrome 71.0.3578.98,,2019-02-04 09:58:56,2019-02-04 09:58:56,0.177s,PASSED
verifyElementChecked,Chrome 71.0.3578.98,,2019-02-04 09:58:56,2019-02-04 09:58:56,0.057s,PASSED
delay,Chrome 71.0.3578.98,,2019-02-04 09:58:56,2019-02-04 09:59:01,5.001s,PASSED
Statement - driver = com.kms.katalon.core.webui.driver.DriverFactory.getWebDriver(),Chrome 71.0.3578.98,,2019-02-04 09:59:01,2019-02-04 09:59:01,0.000s,PASSED
"Statement - table = driver.findElement(org.openqa.selenium.By.xpath(""//*[@id=""ResultTable""]/tbody""))",Chrome 71.0.3578.98,,2019-02-04 09:59:01,2019-02-04 09:59:01,0.028s,PASSED
"Statement - rows_table = table.findElements(org.openqa.selenium.By.tagName(""tr""))",Chrome 71.0.3578.98,,2019-02-04 09:59:01,2019-02-04 09:59:02,0.025s,PASSED
"Statement - conn = CustomKeywords.dbConnection.DBConnection.ConnectDB(""UMTLHKSQLA"", ""AKMS_AutoTest"", ""1433"")",Chrome 71.0.3578.98,,2019-02-04 09:59:02,2019-02-04 09:59:02,0.030s,PASSED
"Statement - statement = conn.prepareCall(""{Call SelAccessKitBorrwoAndReturnsByTypeAndStatus (?,?,?)}"")",Chrome 71.0.3578.98,,2019-02-04 09:59:02,2019-02-04 09:59:02,0.001s,PASSED
"Statement - statement.setString(1, ""All"")",Chrome 71.0.3578.98,,2019-02-04 09:59:02,2019-02-04 09:59:02,0.000s,PASSED
"Statement - statement.setString(2, ""OnLoan"")",Chrome 71.0.3578.98,,2019-02-04 09:59:02,2019-02-04 09:59:02,0.000s,PASSED
"Statement - statement.setString(3, ""TSC_Normal,TSC_Restricted"")",Chrome 71.0.3578.98,,2019-02-04 09:59:02,2019-02-04 09:59:02,0.001s,PASSED
Statement - rs = statement.executeQuery(),Chrome 71.0.3578.98,,2019-02-04 09:59:02,2019-02-04 09:59:02,0.445s,PASSED
"Statement - For ([row = 0, row < rows_table.size(), (row++)])",Chrome 71.0.3578.98,,2019-02-04 09:59:02,2019-02-04 09:59:03,0.663s,PASSED
dbConnection.DBConnection.closeDatabaseConnection,Chrome 71.0.3578.98,,2019-02-04 09:59:03,2019-02-04 09:59:03,0.001s,PASSED
clickCustom.clickJS.clickUsingJS,Chrome 71.0.3578.98,,2019-02-04 09:59:03,2019-02-04 09:59:03,0.125s,PASSED
closeBrowser,Chrome 71.0.3578.98,,2019-02-04 09:59:03,2019-02-04 09:59:03,0.642s,PASSED
,,,,,,
Test Cases/Demo/DefualtPage/SearchByAccessKitTypeOnly/SearchByAccessKitTypeOnly_Normal_LoanOperator,Chrome 71.0.3578.98,,2019-02-04 09:59:03,2019-02-04 09:59:18,14.372s,PASSED
openBrowser,Chrome 71.0.3578.98,,2019-02-04 09:59:04,2019-02-04 09:59:06,2.385s,PASSED
navigateToUrl,Chrome 71.0.3578.98,,2019-02-04 09:59:06,2019-02-04 09:59:07,0.275s,PASSED
setText,Chrome 71.0.3578.98,,2019-02-04 09:59:07,2019-02-04 09:59:07,0.367s,PASSED
setEncryptedText,Chrome 71.0.3578.98,,2019-02-04 09:59:07,2019-02-04 09:59:07,0.298s,PASSED
click,Chrome 71.0.3578.98,,2019-02-04 09:59:07,2019-02-04 09:59:08,0.813s,PASSED
delay,Chrome 71.0.3578.98,,2019-02-04 09:59:08,2019-02-04 09:59:10,2.001s,PASSED
checkFocus.checkElementFocus,Chrome 71.0.3578.98,,2019-02-04 09:59:10,2019-02-04 09:59:10,0.029s,PASSED
selectOptionByValue,Chrome 71.0.3578.98,,2019-02-04 09:59:10,2019-02-04 09:59:10,0.170s,PASSED
verifyElementAttributeValue,Chrome 71.0.3578.98,,2019-02-04 09:59:10,2019-02-04 09:59:10,0.062s,PASSED
verifyElementChecked,Chrome 71.0.3578.98,,2019-02-04 09:59:10,2019-02-04 09:59:10,0.069s,PASSED
delay,Chrome 71.0.3578.98,,2019-02-04 09:59:10,2019-02-04 09:59:15,5.001s,PASSED
Statement - driver = com.kms.katalon.core.webui.driver.DriverFactory.getWebDriver(),Chrome 71.0.3578.98,,2019-02-04 09:59:15,2019-02-04 09:59:15,0.000s,PASSED
"Statement - table = driver.findElement(org.openqa.selenium.By.xpath(""//*[@id=""ResultTable""]/tbody""))",Chrome 71.0.3578.98,,2019-02-04 09:59:15,2019-02-04 09:59:16,0.030s,PASSED
"Statement - rows_table = table.findElements(org.openqa.selenium.By.tagName(""tr""))",Chrome 71.0.3578.98,,2019-02-04 09:59:16,2019-02-04 09:59:16,0.024s,PASSED
"Statement - conn = CustomKeywords.dbConnection.DBConnection.ConnectDB(""UMTLHKSQLA"", ""AKMS_AutoTest"", ""1433"")",Chrome 71.0.3578.98,,2019-02-04 09:59:16,2019-02-04 09:59:16,0.032s,PASSED
"Statement - statement = conn.prepareCall(""{Call SelAccessKitBorrwoAndReturnsByTypeAndStatus (?,?,?)}"")",Chrome 71.0.3578.98,,2019-02-04 09:59:16,2019-02-04 09:59:16,0.000s,PASSED
"Statement - statement.setString(1, ""Normal"")",Chrome 71.0.3578.98,,2019-02-04 09:59:16,2019-02-04 09:59:16,0.000s,PASSED
"Statement - statement.setString(2, ""All"")",Chrome 71.0.3578.98,,2019-02-04 09:59:16,2019-02-04 09:59:16,0.000s,PASSED
"Statement - statement.setString(3, ""Normal,Restricted"")",Chrome 71.0.3578.98,,2019-02-04 09:59:16,2019-02-04 09:59:16,0.000s,PASSED
Statement - rs = statement.executeQuery(),Chrome 71.0.3578.98,,2019-02-04 09:59:16,2019-02-04 09:59:16,0.583s,PASSED
"Statement - For ([row = 0, row < rows_table.size(), (row++)])",Chrome 71.0.3578.98,,2019-02-04 09:59:16,2019-02-04 09:59:17,0.873s,PASSED
dbConnection.DBConnection.closeDatabaseConnection,Chrome 71.0.3578.98,,2019-02-04 09:59:17,2019-02-04 09:59:17,0.001s,PASSED
clickCustom.clickJS.clickUsingJS,Chrome 71.0.3578.98,,2019-02-04 09:59:17,2019-02-04 09:59:17,0.130s,PASSED
closeBrowser,Chrome 71.0.3578.98,,2019-02-04 09:59:17,2019-02-04 09:59:18,0.642s,PASSED
,,,,,,
Test Cases/Demo/DefualtPage/SearchByAccessKitTypeOnly/SearchByAccessKitTypeOnly_Normal_ReceptionOperator,Chrome 71.0.3578.98,,2019-02-04 09:59:18,2019-02-04 09:59:32,13.710s,PASSED
openBrowser,Chrome 71.0.3578.98,,2019-02-04 09:59:18,2019-02-04 09:59:21,2.271s,PASSED
navigateToUrl,Chrome 71.0.3578.98,,2019-02-04 09:59:21,2019-02-04 09:59:21,0.217s,PASSED
setText,Chrome 71.0.3578.98,,2019-02-04 09:59:21,2019-02-04 09:59:21,0.299s,PASSED
setEncryptedText,Chrome 71.0.3578.98,,2019-02-04 09:59:21,2019-02-04 09:59:21,0.221s,PASSED
click,Chrome 71.0.3578.98,,2019-02-04 09:59:21,2019-02-04 09:59:22,0.743s,PASSED
delay,Chrome 71.0.3578.98,,2019-02-04 09:59:22,2019-02-04 09:59:24,2.002s,PASSED
checkFocus.checkElementFocus,Chrome 71.0.3578.98,,2019-02-04 09:59:24,2019-02-04 09:59:24,0.033s,PASSED
selectOptionByValue,Chrome 71.0.3578.98,,2019-02-04 09:59:24,2019-02-04 09:59:24,0.178s,PASSED
verifyElementAttributeValue,Chrome 71.0.3578.98,,2019-02-04 09:59:24,2019-02-04 09:59:24,0.055s,PASSED
verifyElementChecked,Chrome 71.0.3578.98,,2019-02-04 09:59:24,2019-02-04 09:59:24,0.054s,PASSED
delay,Chrome 71.0.3578.98,,2019-02-04 09:59:24,2019-02-04 09:59:29,5.001s,PASSED
Statement - driver = com.kms.katalon.core.webui.driver.DriverFactory.getWebDriver(),Chrome 71.0.3578.98,,2019-02-04 09:59:29,2019-02-04 09:59:29,0.000s,PASSED
"Statement - table = driver.findElement(org.openqa.selenium.By.xpath(""//*[@id=""ResultTable""]/tbody""))",Chrome 71.0.3578.98,,2019-02-04 09:59:29,2019-02-04 09:59:29,0.026s,PASSED
"Statement - rows_table = table.findElements(org.openqa.selenium.By.tagName(""tr""))",Chrome 71.0.3578.98,,2019-02-04 09:59:29,2019-02-04 09:59:29,0.022s,PASSED
"Statement - conn = CustomKeywords.dbConnection.DBConnection.ConnectDB(""UMTLHKSQLA"", ""AKMS_AutoTest"", ""1433"")",Chrome 71.0.3578.98,,2019-02-04 09:59:29,2019-02-04 09:59:29,0.023s,PASSED
"Statement - statement = conn.prepareCall(""{Call SelAccessKitBorrwoAndReturnsByTypeAndStatus (?,?,?)}"")",Chrome 71.0.3578.98,,2019-02-04 09:59:29,2019-02-04 09:59:29,0.001s,PASSED
"Statement - statement.setString(1, ""Normal"")",Chrome 71.0.3578.98,,2019-02-04 09:59:29,2019-02-04 09:59:29,0.000s,PASSED
"Statement - statement.setString(2, ""All"")",Chrome 71.0.3578.98,,2019-02-04 09:59:29,2019-02-04 09:59:29,0.000s,PASSED
"Statement - statement.setString(3, ""Normal,Restricted,TSC_Normal,TSC_Restricted"")",Chrome 71.0.3578.98,,2019-02-04 09:59:29,2019-02-04 09:59:29,0.000s,PASSED
Statement - rs = statement.executeQuery(),Chrome 71.0.3578.98,,2019-02-04 09:59:29,2019-02-04 09:59:30,0.525s,PASSED
"Statement - For ([row = 0, row < rows_table.size(), (row++)])",Chrome 71.0.3578.98,,2019-02-04 09:59:30,2019-02-04 09:59:31,0.821s,PASSED
dbConnection.DBConnection.closeDatabaseConnection,Chrome 71.0.3578.98,,2019-02-04 09:59:31,2019-02-04 09:59:31,0.001s,PASSED
clickCustom.clickJS.clickUsingJS,Chrome 71.0.3578.98,,2019-02-04 09:59:31,2019-02-04 09:59:31,0.109s,PASSED
closeBrowser,Chrome 71.0.3578.98,,2019-02-04 09:59:31,2019-02-04 09:59:32,0.642s,PASSED
,,,,,,
Test Cases/Demo/DefualtPage/SearchByAccessKitTypeOnly/SearchByAccessKitTypeOnly_Restricted_LoanOperator,Chrome 71.0.3578.98,,2019-02-04 09:59:32,2019-02-04 09:59:46,14.756s,PASSED
openBrowser,Chrome 71.0.3578.98,,2019-02-04 09:59:32,2019-02-04 09:59:34,2.315s,PASSED
navigateToUrl,Chrome 71.0.3578.98,,2019-02-04 09:59:34,2019-02-04 09:59:35,0.220s,PASSED
setText,Chrome 71.0.3578.98,,2019-02-04 09:59:35,2019-02-04 09:59:35,0.295s,PASSED
setEncryptedText,Chrome 71.0.3578.98,,2019-02-04 09:59:35,2019-02-04 09:59:35,0.236s,PASSED
click,Chrome 71.0.3578.98,,2019-02-04 09:59:35,2019-02-04 09:59:36,0.734s,PASSED
delay,Chrome 71.0.3578.98,,2019-02-04 09:59:36,2019-02-04 09:59:38,2.001s,PASSED
checkFocus.checkElementFocus,Chrome 71.0.3578.98,,2019-02-04 09:59:38,2019-02-04 09:59:38,0.036s,PASSED
selectOptionByValue,Chrome 71.0.3578.98,,2019-02-04 09:59:38,2019-02-04 09:59:38,0.195s,PASSED
verifyElementAttributeValue,Chrome 71.0.3578.98,,2019-02-04 09:59:38,2019-02-04 09:59:38,0.065s,PASSED
verifyElementChecked,Chrome 71.0.3578.98,,2019-02-04 09:59:38,2019-02-04 09:59:38,0.060s,PASSED
delay,Chrome 71.0.3578.98,,2019-02-04 09:59:38,2019-02-04 09:59:43,5.001s,PASSED
Statement - driver = com.kms.katalon.core.webui.driver.DriverFactory.getWebDriver(),Chrome 71.0.3578.98,,2019-02-04 09:59:43,2019-02-04 09:59:43,0.000s,PASSED
"Statement - table = driver.findElement(org.openqa.selenium.By.xpath(""//*[@id=""ResultTable""]/tbody""))",Chrome 71.0.3578.98,,2019-02-04 09:59:43,2019-02-04 09:59:43,0.034s,PASSED
"Statement - rows_table = table.findElements(org.openqa.selenium.By.tagName(""tr""))",Chrome 71.0.3578.98,,2019-02-04 09:59:43,2019-02-04 09:59:43,0.026s,PASSED
"Statement - conn = CustomKeywords.dbConnection.DBConnection.ConnectDB(""UMTLHKSQLA"", ""AKMS_AutoTest"", ""1433"")",Chrome 71.0.3578.98,,2019-02-04 09:59:43,2019-02-04 09:59:43,0.025s,PASSED
"Statement - statement = conn.prepareCall(""{Call SelAccessKitBorrwoAndReturnsByTypeAndStatus (?,?,?)}"")",Chrome 71.0.3578.98,,2019-02-04 09:59:43,2019-02-04 09:59:43,0.001s,PASSED
"Statement - statement.setString(1, ""Restricted"")",Chrome 71.0.3578.98,,2019-02-04 09:59:43,2019-02-04 09:59:43,0.001s,PASSED
"Statement - statement.setString(2, ""All"")",Chrome 71.0.3578.98,,2019-02-04 09:59:43,2019-02-04 09:59:43,0.000s,PASSED
"Statement - statement.setString(3, ""Normal,Restricted"")",Chrome 71.0.3578.98,,2019-02-04 09:59:43,2019-02-04 09:59:43,0.000s,PASSED
Statement - rs = statement.executeQuery(),Chrome 71.0.3578.98,,2019-02-04 09:59:43,2019-02-04 09:59:44,0.646s,PASSED
"Statement - For ([row = 0, row < rows_table.size(), (row++)])",Chrome 71.0.3578.98,,2019-02-04 09:59:44,2019-02-04 09:59:46,1.645s,PASSED
dbConnection.DBConnection.closeDatabaseConnection,Chrome 71.0.3578.98,,2019-02-04 09:59:46,2019-02-04 09:59:46,0.001s,PASSED
clickCustom.clickJS.clickUsingJS,Chrome 71.0.3578.98,,2019-02-04 09:59:46,2019-02-04 09:59:46,0.134s,PASSED
closeBrowser,Chrome 71.0.3578.98,,2019-02-04 09:59:46,2019-02-04 09:59:46,0.646s,PASSED
,,,,,,
Test Cases/Demo/DefualtPage/SearchByAccessKitTypeOnly/SearchByAccessKitTypeOnly_Restricted_ReceptionOperator,Chrome 71.0.3578.98,,2019-02-04 09:59:46,2019-02-04 10:00:01,14.673s,PASSED
openBrowser,Chrome 71.0.3578.98,,2019-02-04 09:59:47,2019-02-04 09:59:49,2.230s,PASSED
navigateToUrl,Chrome 71.0.3578.98,,2019-02-04 09:59:49,2019-02-04 09:59:49,0.220s,PASSED
setText,Chrome 71.0.3578.98,,2019-02-04 09:59:49,2019-02-04 09:59:49,0.268s,PASSED
setEncryptedText,Chrome 71.0.3578.98,,2019-02-04 09:59:49,2019-02-04 09:59:50,0.218s,PASSED
click,Chrome 71.0.3578.98,,2019-02-04 09:59:50,2019-02-04 09:59:51,0.836s,PASSED
delay,Chrome 71.0.3578.98,,2019-02-04 09:59:51,2019-02-04 09:59:53,2.001s,PASSED
checkFocus.checkElementFocus,Chrome 71.0.3578.98,,2019-02-04 09:59:53,2019-02-04 09:59:53,0.031s,PASSED
selectOptionByValue,Chrome 71.0.3578.98,,2019-02-04 09:59:53,2019-02-04 09:59:53,0.180s,PASSED
verifyElementAttributeValue,Chrome 71.0.3578.98,,2019-02-04 09:59:53,2019-02-04 09:59:53,0.056s,PASSED
verifyElementChecked,Chrome 71.0.3578.98,,2019-02-04 09:59:53,2019-02-04 09:59:53,0.057s,PASSED
delay,Chrome 71.0.3578.98,,2019-02-04 09:59:53,2019-02-04 09:59:58,5.000s,PASSED
Statement - driver = com.kms.katalon.core.webui.driver.DriverFactory.getWebDriver(),Chrome 71.0.3578.98,,2019-02-04 09:59:58,2019-02-04 09:59:58,0.001s,PASSED
"Statement - table = driver.findElement(org.openqa.selenium.By.xpath(""//*[@id=""ResultTable""]/tbody""))",Chrome 71.0.3578.98,,2019-02-04 09:59:58,2019-02-04 09:59:58,0.025s,PASSED
"Statement - rows_table = table.findElements(org.openqa.selenium.By.tagName(""tr""))",Chrome 71.0.3578.98,,2019-02-04 09:59:58,2019-02-04 09:59:58,0.023s,PASSED
"Statement - conn = CustomKeywords.dbConnection.DBConnection.ConnectDB(""UMTLHKSQLA"", ""AKMS_AutoTest"", ""1433"")",Chrome 71.0.3578.98,,2019-02-04 09:59:58,2019-02-04 09:59:58,0.027s,PASSED
"Statement - statement = conn.prepareCall(""{Call SelAccessKitBorrwoAndReturnsByTypeAndStatus (?,?,?)}"")",Chrome 71.0.3578.98,,2019-02-04 09:59:58,2019-02-04 09:59:58,0.001s,PASSED
"Statement - statement.setString(1, ""Restricted"")",Chrome 71.0.3578.98,,2019-02-04 09:59:58,2019-02-04 09:59:58,0.001s,PASSED
"Statement - statement.setString(2, ""All"")",Chrome 71.0.3578.98,,2019-02-04 09:59:58,2019-02-04 09:59:58,0.000s,PASSED
"Statement - statement.setString(3, ""Normal,Restricted,TSC_Normal,TSC_Restricted"")",Chrome 71.0.3578.98,,2019-02-04 09:59:58,2019-02-04 09:59:58,0.001s,PASSED
Statement - rs = statement.executeQuery(),Chrome 71.0.3578.98,,2019-02-04 09:59:58,2019-02-04 09:59:59,0.660s,PASSED
"Statement - For ([row = 0, row < rows_table.size(), (row++)])",Chrome 71.0.3578.98,,2019-02-04 09:59:59,2019-02-04 10:00:00,1.605s,PASSED
dbConnection.DBConnection.closeDatabaseConnection,Chrome 71.0.3578.98,,2019-02-04 10:00:00,2019-02-04 10:00:00,0.001s,PASSED
clickCustom.clickJS.clickUsingJS,Chrome 71.0.3578.98,,2019-02-04 10:00:00,2019-02-04 10:00:00,0.125s,PASSED
closeBrowser,Chrome 71.0.3578.98,,2019-02-04 10:00:00,2019-02-04 10:00:01,0.652s,PASSED
,,,,,,
Test Cases/Demo/DefualtPage/SearchByAccessKitTypeOnly/SearchByAccessKitTypeOnly_TemporaryStaffCard_ReceptionOperator,Chrome 71.0.3578.98,,2019-02-04 10:00:01,2019-02-04 10:00:16,14.729s,PASSED
openBrowser,Chrome 71.0.3578.98,,2019-02-04 10:00:01,2019-02-04 10:00:04,2.281s,PASSED
navigateToUrl,Chrome 71.0.3578.98,,2019-02-04 10:00:04,2019-02-04 10:00:04,0.235s,PASSED
setText,Chrome 71.0.3578.98,,2019-02-04 10:00:04,2019-02-04 10:00:04,0.275s,PASSED
setEncryptedText,Chrome 71.0.3578.98,,2019-02-04 10:00:04,2019-02-04 10:00:05,0.255s,PASSED
click,Chrome 71.0.3578.98,,2019-02-04 10:00:05,2019-02-04 10:00:05,0.844s,PASSED
delay,Chrome 71.0.3578.98,,2019-02-04 10:00:05,2019-02-04 10:00:07,2.001s,PASSED
checkFocus.checkElementFocus,Chrome 71.0.3578.98,,2019-02-04 10:00:07,2019-02-04 10:00:07,0.026s,PASSED
selectOptionByValue,Chrome 71.0.3578.98,,2019-02-04 10:00:07,2019-02-04 10:00:08,0.188s,PASSED
verifyElementAttributeValue,Chrome 71.0.3578.98,,2019-02-04 10:00:08,2019-02-04 10:00:08,0.059s,PASSED
verifyElementChecked,Chrome 71.0.3578.98,,2019-02-04 10:00:08,2019-02-04 10:00:08,0.059s,PASSED
delay,Chrome 71.0.3578.98,,2019-02-04 10:00:08,2019-02-04 10:00:13,5.001s,PASSED
Statement - driver = com.kms.katalon.core.webui.driver.DriverFactory.getWebDriver(),Chrome 71.0.3578.98,,2019-02-04 10:00:13,2019-02-04 10:00:13,0.001s,PASSED
"Statement - table = driver.findElement(org.openqa.selenium.By.xpath(""//*[@id=""ResultTable""]/tbody""))",Chrome 71.0.3578.98,,2019-02-04 10:00:13,2019-02-04 10:00:13,0.031s,PASSED
"Statement - rows_table = table.findElements(org.openqa.selenium.By.tagName(""tr""))",Chrome 71.0.3578.98,,2019-02-04 10:00:13,2019-02-04 10:00:13,0.024s,PASSED
"Statement - conn = CustomKeywords.dbConnection.DBConnection.ConnectDB(""UMTLHKSQLA"", ""AKMS_AutoTest"", ""1433"")",Chrome 71.0.3578.98,,2019-02-04 10:00:13,2019-02-04 10:00:13,0.030s,PASSED
"Statement - statement = conn.prepareCall(""{Call SelAccessKitBorrwoAndReturnsByTypeAndStatus (?,?,?)}"")",Chrome 71.0.3578.98,,2019-02-04 10:00:13,2019-02-04 10:00:13,0.000s,PASSED
"Statement - statement.setString(1, ""TSC_Normal"")",Chrome 71.0.3578.98,,2019-02-04 10:00:13,2019-02-04 10:00:13,0.000s,PASSED
"Statement - statement.setString(2, ""All"")",Chrome 71.0.3578.98,,2019-02-04 10:00:13,2019-02-04 10:00:13,0.001s,PASSED
"Statement - statement.setString(3, ""Normal,Restricted,TSC_Normal,TSC_Restricted"")",Chrome 71.0.3578.98,,2019-02-04 10:00:13,2019-02-04 10:00:13,0.000s,PASSED
Statement - rs = statement.executeQuery(),Chrome 71.0.3578.98,,2019-02-04 10:00:13,2019-02-04 10:00:13,0.379s,PASSED
"Statement - For ([row = 0, row < rows_table.size(), (row++)])",Chrome 71.0.3578.98,,2019-02-04 10:00:13,2019-02-04 10:00:15,1.762s,PASSED
dbConnection.DBConnection.closeDatabaseConnection,Chrome 71.0.3578.98,,2019-02-04 10:00:15,2019-02-04 10:00:15,0.002s,PASSED
clickCustom.clickJS.clickUsingJS,Chrome 71.0.3578.98,,2019-02-04 10:00:15,2019-02-04 10:00:15,0.127s,PASSED
closeBrowser,Chrome 71.0.3578.98,,2019-02-04 10:00:15,2019-02-04 10:00:16,0.646s,PASSED
,,,,,,
Test Cases/Demo/DefualtPage/SearchByAccessKitTypeOnly/SearchByAccessKitTypeOnly_TemporaryStaffCard_Restricted_ReceptionOperator,Chrome 71.0.3578.98,,2019-02-04 10:00:16,2019-02-04 10:00:30,13.992s,PASSED
openBrowser,Chrome 71.0.3578.98,,2019-02-04 10:00:16,2019-02-04 10:00:19,2.381s,PASSED
navigateToUrl,Chrome 71.0.3578.98,,2019-02-04 10:00:19,2019-02-04 10:00:19,0.244s,PASSED
setText,Chrome 71.0.3578.98,,2019-02-04 10:00:19,2019-02-04 10:00:19,0.341s,PASSED
setEncryptedText,Chrome 71.0.3578.98,,2019-02-04 10:00:19,2019-02-04 10:00:19,0.273s,PASSED
click,Chrome 71.0.3578.98,,2019-02-04 10:00:19,2019-02-04 10:00:20,0.735s,PASSED
delay,Chrome 71.0.3578.98,,2019-02-04 10:00:20,2019-02-04 10:00:22,2.003s,PASSED
checkFocus.checkElementFocus,Chrome 71.0.3578.98,,2019-02-04 10:00:22,2019-02-04 10:00:22,0.030s,PASSED
selectOptionByValue,Chrome 71.0.3578.98,,2019-02-04 10:00:22,2019-02-04 10:00:22,0.169s,PASSED
verifyElementAttributeValue,Chrome 71.0.3578.98,,2019-02-04 10:00:22,2019-02-04 10:00:22,0.068s,PASSED
verifyElementChecked,Chrome 71.0.3578.98,,2019-02-04 10:00:22,2019-02-04 10:00:23,0.067s,PASSED
delay,Chrome 71.0.3578.98,,2019-02-04 10:00:23,2019-02-04 10:00:28,5.001s,PASSED
Statement - driver = com.kms.katalon.core.webui.driver.DriverFactory.getWebDriver(),Chrome 71.0.3578.98,,2019-02-04 10:00:28,2019-02-04 10:00:28,0.001s,PASSED
"Statement - table = driver.findElement(org.openqa.selenium.By.xpath(""//*[@id=""ResultTable""]/tbody""))",Chrome 71.0.3578.98,,2019-02-04 10:00:28,2019-02-04 10:00:28,0.031s,PASSED
"Statement - rows_table = table.findElements(org.openqa.selenium.By.tagName(""tr""))",Chrome 71.0.3578.98,,2019-02-04 10:00:28,2019-02-04 10:00:28,0.022s,PASSED
"Statement - conn = CustomKeywords.dbConnection.DBConnection.ConnectDB(""UMTLHKSQLA"", ""AKMS_AutoTest"", ""1433"")",Chrome 71.0.3578.98,,2019-02-04 10:00:28,2019-02-04 10:00:28,0.028s,PASSED
"Statement - statement = conn.prepareCall(""{Call SelAccessKitBorrwoAndReturnsByTypeAndStatus (?,?,?)}"")",Chrome 71.0.3578.98,,2019-02-04 10:00:28,2019-02-04 10:00:28,0.001s,PASSED
"Statement - statement.setString(1, ""TSC_Restricted"")",Chrome 71.0.3578.98,,2019-02-04 10:00:28,2019-02-04 10:00:28,0.001s,PASSED
"Statement - statement.setString(2, ""All"")",Chrome 71.0.3578.98,,2019-02-04 10:00:28,2019-02-04 10:00:28,0.000s,PASSED
"Statement - statement.setString(3, ""Normal,Restricted,TSC_Normal,TSC_Restricted"")",Chrome 71.0.3578.98,,2019-02-04 10:00:28,2019-02-04 10:00:28,0.000s,PASSED
Statement - rs = statement.executeQuery(),Chrome 71.0.3578.98,,2019-02-04 10:00:28,2019-02-04 10:00:28,0.291s,PASSED
"Statement - For ([row = 0, row < rows_table.size(), (row++)])",Chrome 71.0.3578.98,,2019-02-04 10:00:28,2019-02-04 10:00:29,0.948s,PASSED
dbConnection.DBConnection.closeDatabaseConnection,Chrome 71.0.3578.98,,2019-02-04 10:00:29,2019-02-04 10:00:29,0.000s,PASSED
clickCustom.clickJS.clickUsingJS,Chrome 71.0.3578.98,,2019-02-04 10:00:29,2019-02-04 10:00:29,0.165s,PASSED
closeBrowser,Chrome 71.0.3578.98,,2019-02-04 10:00:29,2019-02-04 10:00:30,0.675s,PASSED
,,,,,,
Test Cases/Demo/DefualtPage/SearchBySearchInListOnly/SearchBySearchInListOnly_SpecialCharacters,Chrome 71.0.3578.98,"SpecialCharacters:
/",2019-02-04 10:00:30,2019-02-04 10:00:43,13.630s,PASSED
"Statement - inputString = ""/""",Chrome 71.0.3578.98,,2019-02-04 10:00:30,2019-02-04 10:00:30,0.001s,PASSED
openBrowser,Chrome 71.0.3578.98,,2019-02-04 10:00:30,2019-02-04 10:00:33,2.269s,PASSED
navigateToUrl,Chrome 71.0.3578.98,,2019-02-04 10:00:33,2019-02-04 10:00:33,0.255s,PASSED
setText,Chrome 71.0.3578.98,,2019-02-04 10:00:33,2019-02-04 10:00:33,0.342s,PASSED
setEncryptedText,Chrome 71.0.3578.98,,2019-02-04 10:00:33,2019-02-04 10:00:33,0.267s,PASSED
click,Chrome 71.0.3578.98,,2019-02-04 10:00:33,2019-02-04 10:00:34,0.863s,PASSED
delay,Chrome 71.0.3578.98,,2019-02-04 10:00:34,2019-02-04 10:00:36,2.001s,PASSED
verifyElementAttributeValue,Chrome 71.0.3578.98,,2019-02-04 10:00:36,2019-02-04 10:00:36,0.063s,PASSED
verifyElementAttributeValue,Chrome 71.0.3578.98,,2019-02-04 10:00:36,2019-02-04 10:00:36,0.068s,PASSED
verifyElementChecked,Chrome 71.0.3578.98,,2019-02-04 10:00:36,2019-02-04 10:00:36,0.061s,PASSED
sendKeys,Chrome 71.0.3578.98,,2019-02-04 10:00:36,2019-02-04 10:00:37,0.184s,PASSED
delay,Chrome 71.0.3578.98,,2019-02-04 10:00:37,2019-02-04 10:00:42,5.017s,PASSED
Statement - driver = com.kms.katalon.core.webui.driver.DriverFactory.getWebDriver(),Chrome 71.0.3578.98,,2019-02-04 10:00:42,2019-02-04 10:00:42,0.005s,PASSED
"Statement - table = driver.findElement(org.openqa.selenium.By.xpath(""//*[@id=""ResultTable""]/tbody""))",Chrome 71.0.3578.98,,2019-02-04 10:00:42,2019-02-04 10:00:42,0.074s,PASSED
"Statement - rows_table = table.findElements(org.openqa.selenium.By.tagName(""tr""))",Chrome 71.0.3578.98,,2019-02-04 10:00:42,2019-02-04 10:00:42,0.034s,PASSED
Statement - isContain = false,Chrome 71.0.3578.98,,2019-02-04 10:00:42,2019-02-04 10:00:42,0.000s,PASSED
Statement - isNoRecord = false,Chrome 71.0.3578.98,,2019-02-04 10:00:42,2019-02-04 10:00:42,0.000s,PASSED
"Statement - For ([row = 0, row < rows_table.size(), (row++)])",Chrome 71.0.3578.98,,2019-02-04 10:00:42,2019-02-04 10:00:42,0.640s,PASSED
clickCustom.clickJS.clickUsingJS,Chrome 71.0.3578.98,,2019-02-04 10:00:42,2019-02-04 10:00:43,0.220s,PASSED
closeBrowser,Chrome 71.0.3578.98,,2019-02-04 10:00:43,2019-02-04 10:00:43,0.735s,PASSED
,,,,,,
Test Cases/Demo/DefualtPage/SearchBySearchInListOnly/SearchBySearchInList_CaseSenitive,Chrome 71.0.3578.98,,2019-02-04 10:00:43,2019-02-04 10:00:57,13.474s,PASSED
"Statement - inputString = ""MICHAEL""",Chrome 71.0.3578.98,,2019-02-04 10:00:44,2019-02-04 10:00:44,0.001s,PASSED
openBrowser,Chrome 71.0.3578.98,,2019-02-04 10:00:44,2019-02-04 10:00:47,2.539s,PASSED
navigateToUrl,Chrome 71.0.3578.98,,2019-02-04 10:00:47,2019-02-04 10:00:47,0.280s,PASSED
setText,Chrome 71.0.3578.98,,2019-02-04 10:00:47,2019-02-04 10:00:47,0.350s,PASSED
setEncryptedText,Chrome 71.0.3578.98,,2019-02-04 10:00:47,2019-02-04 10:00:48,0.335s,PASSED
click,Chrome 71.0.3578.98,,2019-02-04 10:00:48,2019-02-04 10:00:49,0.822s,PASSED
delay,Chrome 71.0.3578.98,,2019-02-04 10:00:49,2019-02-04 10:00:51,2.002s,PASSED
verifyElementAttributeValue,Chrome 71.0.3578.98,,2019-02-04 10:00:51,2019-02-04 10:00:51,0.070s,PASSED
verifyElementAttributeValue,Chrome 71.0.3578.98,,2019-02-04 10:00:51,2019-02-04 10:00:51,0.055s,PASSED
verifyElementChecked,Chrome 71.0.3578.98,,2019-02-04 10:00:51,2019-02-04 10:00:51,0.058s,PASSED
sendKeys,Chrome 71.0.3578.98,,2019-02-04 10:00:51,2019-02-04 10:00:51,0.241s,PASSED
delay,Chrome 71.0.3578.98,,2019-02-04 10:00:51,2019-02-04 10:00:56,5.003s,PASSED
Statement - driver = com.kms.katalon.core.webui.driver.DriverFactory.getWebDriver(),Chrome 71.0.3578.98,,2019-02-04 10:00:56,2019-02-04 10:00:56,0.001s,PASSED
"Statement - table = driver.findElement(org.openqa.selenium.By.xpath(""//*[@id=""ResultTable""]/tbody""))",Chrome 71.0.3578.98,,2019-02-04 10:00:56,2019-02-04 10:00:56,0.035s,PASSED
"Statement - rows_table = table.findElements(org.openqa.selenium.By.tagName(""tr""))",Chrome 71.0.3578.98,,2019-02-04 10:00:56,2019-02-04 10:00:56,0.022s,PASSED
Statement - isContain = false,Chrome 71.0.3578.98,,2019-02-04 10:00:56,2019-02-04 10:00:56,0.000s,PASSED
Statement - isNoRecord = false,Chrome 71.0.3578.98,,2019-02-04 10:00:56,2019-02-04 10:00:56,0.001s,PASSED
"Statement - For ([row = 0, row < rows_table.size(), (row++)])",Chrome 71.0.3578.98,,2019-02-04 10:00:56,2019-02-04 10:00:56,0.130s,PASSED
clickCustom.clickJS.clickUsingJS,Chrome 71.0.3578.98,,2019-02-04 10:00:56,2019-02-04 10:00:56,0.131s,PASSED
closeBrowser,Chrome 71.0.3578.98,,2019-02-04 10:00:56,2019-02-04 10:00:57,0.654s,PASSED
,,,,,,
Test Cases/Demo/DefualtPage/SearchBySearchInListOnly/SearchBySearchInList_WildCard,Chrome 71.0.3578.98,,2019-02-04 10:00:57,2019-02-04 10:01:13,16.204s,PASSED
openBrowser,Chrome 71.0.3578.98,,2019-02-04 10:00:58,2019-02-04 10:01:00,2.303s,PASSED
navigateToUrl,Chrome 71.0.3578.98,,2019-02-04 10:01:00,2019-02-04 10:01:00,0.253s,PASSED
setText,Chrome 71.0.3578.98,,2019-02-04 10:01:00,2019-02-04 10:01:00,0.339s,PASSED
setEncryptedText,Chrome 71.0.3578.98,,2019-02-04 10:01:00,2019-02-04 10:01:01,0.226s,PASSED
click,Chrome 71.0.3578.98,,2019-02-04 10:01:01,2019-02-04 10:01:01,0.782s,PASSED
delay,Chrome 71.0.3578.98,,2019-02-04 10:01:01,2019-02-04 10:01:03,2.002s,PASSED
checkFocus.checkElementFocus,Chrome 71.0.3578.98,,2019-02-04 10:01:03,2019-02-04 10:01:03,0.040s,PASSED
verifyElementAttributeValue,Chrome 71.0.3578.98,,2019-02-04 10:01:03,2019-02-04 10:01:04,0.054s,PASSED
verifyElementAttributeValue,Chrome 71.0.3578.98,,2019-02-04 10:01:04,2019-02-04 10:01:04,0.057s,PASSED
verifyElementChecked,Chrome 71.0.3578.98,,2019-02-04 10:01:04,2019-02-04 10:01:04,0.052s,PASSED
delay,Chrome 71.0.3578.98,,2019-02-04 10:01:04,2019-02-04 10:01:09,5.001s,PASSED
Statement - driver = com.kms.katalon.core.webui.driver.DriverFactory.getWebDriver(),Chrome 71.0.3578.98,,2019-02-04 10:01:09,2019-02-04 10:01:09,0.001s,PASSED
"Statement - table = driver.findElement(org.openqa.selenium.By.xpath(""//*[@id=""ResultTable""]/tbody""))",Chrome 71.0.3578.98,,2019-02-04 10:01:09,2019-02-04 10:01:09,0.038s,PASSED
"Statement - rows_table = table.findElements(org.openqa.selenium.By.tagName(""tr""))",Chrome 71.0.3578.98,,2019-02-04 10:01:09,2019-02-04 10:01:09,0.028s,PASSED
"Statement - conn = CustomKeywords.dbConnection.DBConnection.ConnectDB(""UMTLHKSQLA"", ""AKMS_AutoTest"", ""1433"")",Chrome 71.0.3578.98,,2019-02-04 10:01:09,2019-02-04 10:01:09,0.043s,PASSED
"Statement - statement = conn.prepareCall(""{Call SelAccessKitBorrwoAndReturnsByTypeAndStatus (?,?,?)}"")",Chrome 71.0.3578.98,,2019-02-04 10:01:09,2019-02-04 10:01:09,0.001s,PASSED
"Statement - statement.setString(1, ""All"")",Chrome 71.0.3578.98,,2019-02-04 10:01:09,2019-02-04 10:01:09,0.000s,PASSED
"Statement - statement.setString(2, ""All"")",Chrome 71.0.3578.98,,2019-02-04 10:01:09,2019-02-04 10:01:09,0.001s,PASSED
"Statement - statement.setString(3, ""TSC_Normal,TSC_Restricted"")",Chrome 71.0.3578.98,,2019-02-04 10:01:09,2019-02-04 10:01:09,0.001s,PASSED
Statement - rs = statement.executeQuery(),Chrome 71.0.3578.98,,2019-02-04 10:01:09,2019-02-04 10:01:09,0.587s,PASSED
"Statement - For ([row = 0, row < rows_table.size(), (row++)])",Chrome 71.0.3578.98,,2019-02-04 10:01:09,2019-02-04 10:01:12,2.981s,PASSED
dbConnection.DBConnection.closeDatabaseConnection,Chrome 71.0.3578.98,,2019-02-04 10:01:12,2019-02-04 10:01:12,0.002s,PASSED
clickCustom.clickJS.clickUsingJS,Chrome 71.0.3578.98,,2019-02-04 10:01:12,2019-02-04 10:01:12,0.143s,PASSED
closeBrowser,Chrome 71.0.3578.98,,2019-02-04 10:01:12,2019-02-04 10:01:13,0.670s,PASSED
,,,,,,
Test Cases/Demo/DefualtPage/SearchBySearchInListOnly/SearchBySearchListOnly_ChineseCharacters,Chrome 71.0.3578.98,"Chinese Characters:
測試",2019-02-04 10:01:13,2019-02-04 10:01:26,12.925s,PASSED
"Statement - inputString = ""測試""",Chrome 71.0.3578.98,,2019-02-04 10:01:14,2019-02-04 10:01:14,0.002s,PASSED
openBrowser,Chrome 71.0.3578.98,,2019-02-04 10:01:14,2019-02-04 10:01:16,2.340s,PASSED
navigateToUrl,Chrome 71.0.3578.98,,2019-02-04 10:01:16,2019-02-04 10:01:16,0.282s,PASSED
setText,Chrome 71.0.3578.98,,2019-02-04 10:01:16,2019-02-04 10:01:17,0.314s,PASSED
setEncryptedText,Chrome 71.0.3578.98,,2019-02-04 10:01:17,2019-02-04 10:01:17,0.232s,PASSED
click,Chrome 71.0.3578.98,,2019-02-04 10:01:17,2019-02-04 10:01:18,0.731s,PASSED
delay,Chrome 71.0.3578.98,,2019-02-04 10:01:18,2019-02-04 10:01:20,2.002s,PASSED
verifyElementAttributeValue,Chrome 71.0.3578.98,,2019-02-04 10:01:20,2019-02-04 10:01:20,0.065s,PASSED
verifyElementAttributeValue,Chrome 71.0.3578.98,,2019-02-04 10:01:20,2019-02-04 10:01:20,0.048s,PASSED
verifyElementChecked,Chrome 71.0.3578.98,,2019-02-04 10:01:20,2019-02-04 10:01:20,0.054s,PASSED
sendKeys,Chrome 71.0.3578.98,,2019-02-04 10:01:20,2019-02-04 10:01:20,0.191s,PASSED
delay,Chrome 71.0.3578.98,,2019-02-04 10:01:20,2019-02-04 10:01:25,5.003s,PASSED
Statement - driver = com.kms.katalon.core.webui.driver.DriverFactory.getWebDriver(),Chrome 71.0.3578.98,,2019-02-04 10:01:25,2019-02-04 10:01:25,0.002s,PASSED
"Statement - table = driver.findElement(org.openqa.selenium.By.xpath(""//*[@id=""ResultTable""]/tbody""))",Chrome 71.0.3578.98,,2019-02-04 10:01:25,2019-02-04 10:01:25,0.037s,PASSED
"Statement - rows_table = table.findElements(org.openqa.selenium.By.tagName(""tr""))",Chrome 71.0.3578.98,,2019-02-04 10:01:25,2019-02-04 10:01:25,0.030s,PASSED
Statement - isContain = false,Chrome 71.0.3578.98,,2019-02-04 10:01:25,2019-02-04 10:01:25,0.000s,PASSED
Statement - isNoRecord = false,Chrome 71.0.3578.98,,2019-02-04 10:01:25,2019-02-04 10:01:25,0.000s,PASSED
"Statement - For ([row = 0, row < rows_table.size(), (row++)])",Chrome 71.0.3578.98,,2019-02-04 10:01:25,2019-02-04 10:01:25,0.067s,PASSED
clickCustom.clickJS.clickUsingJS,Chrome 71.0.3578.98,,2019-02-04 10:01:25,2019-02-04 10:01:25,0.148s,PASSED
closeBrowser,Chrome 71.0.3578.98,,2019-02-04 10:01:25,2019-02-04 10:01:26,0.657s,PASSED
,,,,,,
Test Cases/Demo/DefualtPage/SearchBySearchInListOnly/SearchBySearchListOnly_EnglishCharacters,Chrome 71.0.3578.98,"English Characters:
Vic",2019-02-04 10:01:26,2019-02-04 10:01:39,12.845s,PASSED
"Statement - inputString = ""Vic""",Chrome 71.0.3578.98,,2019-02-04 10:01:27,2019-02-04 10:01:27,0.001s,PASSED
openBrowser,Chrome 71.0.3578.98,,2019-02-04 10:01:27,2019-02-04 10:01:29,2.264s,PASSED
navigateToUrl,Chrome 71.0.3578.98,,2019-02-04 10:01:29,2019-02-04 10:01:29,0.230s,PASSED
setText,Chrome 71.0.3578.98,,2019-02-04 10:01:29,2019-02-04 10:01:30,0.284s,PASSED
setEncryptedText,Chrome 71.0.3578.98,,2019-02-04 10:01:30,2019-02-04 10:01:30,0.242s,PASSED
click,Chrome 71.0.3578.98,,2019-02-04 10:01:30,2019-02-04 10:01:31,0.797s,PASSED
delay,Chrome 71.0.3578.98,,2019-02-04 10:01:31,2019-02-04 10:01:33,2.003s,PASSED
verifyElementAttributeValue,Chrome 71.0.3578.98,,2019-02-04 10:01:33,2019-02-04 10:01:33,0.068s,PASSED
verifyElementAttributeValue,Chrome 71.0.3578.98,,2019-02-04 10:01:33,2019-02-04 10:01:33,0.057s,PASSED
verifyElementChecked,Chrome 71.0.3578.98,,2019-02-04 10:01:33,2019-02-04 10:01:33,0.052s,PASSED
sendKeys,Chrome 71.0.3578.98,,2019-02-04 10:01:33,2019-02-04 10:01:33,0.158s,PASSED
delay,Chrome 71.0.3578.98,,2019-02-04 10:01:33,2019-02-04 10:01:38,5.002s,PASSED
Statement - driver = com.kms.katalon.core.webui.driver.DriverFactory.getWebDriver(),Chrome 71.0.3578.98,,2019-02-04 10:01:38,2019-02-04 10:01:38,0.001s,PASSED
"Statement - table = driver.findElement(org.openqa.selenium.By.xpath(""//*[@id=""ResultTable""]/tbody""))",Chrome 71.0.3578.98,,2019-02-04 10:01:38,2019-02-04 10:01:38,0.035s,PASSED
"Statement - rows_table = table.findElements(org.openqa.selenium.By.tagName(""tr""))",Chrome 71.0.3578.98,,2019-02-04 10:01:38,2019-02-04 10:01:38,0.027s,PASSED
Statement - isContain = false,Chrome 71.0.3578.98,,2019-02-04 10:01:38,2019-02-04 10:01:38,0.000s,PASSED
Statement - isNoRecord = false,Chrome 71.0.3578.98,,2019-02-04 10:01:38,2019-02-04 10:01:38,0.001s,PASSED
"Statement - For ([row = 0, row < rows_table.size(), (row++)])",Chrome 71.0.3578.98,,2019-02-04 10:01:38,2019-02-04 10:01:38,0.127s,PASSED
clickCustom.clickJS.clickUsingJS,Chrome 71.0.3578.98,,2019-02-04 10:01:38,2019-02-04 10:01:38,0.122s,PASSED
closeBrowser,Chrome 71.0.3578.98,,2019-02-04 10:01:38,2019-02-04 10:01:39,0.649s,PASSED
