Suite/Test/Step Name,Browser,Description,Start time,End time,Duration,Status
Web API,,,2019-02-04 12:26:45,2019-02-04 12:26:53,7.989s,PASSED
,,,,,,
Test Cases/Demo/API Test/GetBorrowAndReturnList,,,2019-02-04 12:26:46,2019-02-04 12:26:51,4.678s,PASSED
Statement - response = com.kms.katalon.core.webservice.keyword.WSBuiltInKeywords.sendRequest(com.kms.katalon.core.testobject.ObjectRepository.findTestObject(GetBorrowAndReturnList)),,,2019-02-04 12:26:47,2019-02-04 12:26:51,3.746s,PASSED
verifyResponseStatusCode,,,2019-02-04 12:26:51,2019-02-04 12:26:51,0.035s,PASSED
verifyElementsCount,,,2019-02-04 12:26:51,2019-02-04 12:26:51,0.092s,PASSED
verifyElementPropertyValue,,,2019-02-04 12:26:51,2019-02-04 12:26:51,0.046s,PASSED
,,,,,,
Test Cases/Demo/API Test/GetUserDisplayNameBySearch,,,2019-02-04 12:26:51,2019-02-04 12:26:52,0.842s,PASSED
Statement - response = com.kms.katalon.core.webservice.keyword.WSBuiltInKeywords.sendRequest(com.kms.katalon.core.testobject.ObjectRepository.findTestObject(GetUserDisplayNameBySearch)),,,2019-02-04 12:26:51,2019-02-04 12:26:51,0.206s,PASSED
verifyResponseStatusCode,,,2019-02-04 12:26:51,2019-02-04 12:26:52,0.005s,PASSED
verifyElementsCount,,,2019-02-04 12:26:52,2019-02-04 12:26:52,0.029s,PASSED
verifyElementPropertyValue,,,2019-02-04 12:26:52,2019-02-04 12:26:52,0.036s,PASSED
verifyElementPropertyValue,,,2019-02-04 12:26:52,2019-02-04 12:26:52,0.032s,PASSED
,,,,,,
Test Cases/Demo/API Test/GetUserDisplayNameBySearchSimplified,,,2019-02-04 12:26:52,2019-02-04 12:26:52,0.722s,PASSED
Statement - response = com.kms.katalon.core.webservice.keyword.WSBuiltInKeywords.sendRequest(com.kms.katalon.core.testobject.ObjectRepository.findTestObject(GetUserDisplayNameBySearchSimplified)),,,2019-02-04 12:26:52,2019-02-04 12:26:52,0.227s,PASSED
verifyResponseStatusCode,,,2019-02-04 12:26:52,2019-02-04 12:26:52,0.004s,PASSED
verifyElementsCount,,,2019-02-04 12:26:52,2019-02-04 12:26:52,0.038s,PASSED
verifyElementPropertyValue,,,2019-02-04 12:26:52,2019-02-04 12:26:52,0.037s,PASSED
,,,,,,
Test Cases/Demo/API Test/GetUserDisplayNameBySearchTraditional,,,2019-02-04 12:26:52,2019-02-04 12:26:53,0.808s,PASSED
Statement - response = com.kms.katalon.core.webservice.keyword.WSBuiltInKeywords.sendRequest(com.kms.katalon.core.testobject.ObjectRepository.findTestObject(GetUserDisplayNameBySearchTraditional)),,,2019-02-04 12:26:53,2019-02-04 12:26:53,0.225s,PASSED
verifyResponseStatusCode,,,2019-02-04 12:26:53,2019-02-04 12:26:53,0.003s,PASSED
verifyElementsCount,,,2019-02-04 12:26:53,2019-02-04 12:26:53,0.053s,PASSED
verifyElementPropertyValue,,,2019-02-04 12:26:53,2019-02-04 12:26:53,0.034s,PASSED
